<svg width="1601" height="684" viewBox="0 0 1601 684" fill="none" xmlns="http://www.w3.org/2000/svg">
<g clip-path="url(#clip0)">
<path d="M287.402 408.368C289.938 413.441 289.938 420.205 287.402 426.969L259.508 514.054C255.281 526.736 256.972 539.419 262.043 551.256C267.961 563.092 278.104 571.547 290.784 575.775L377.85 604.521C385.457 607.058 390.529 611.285 393.065 616.358C395.601 622.277 395.601 628.195 391.374 634.113C379.54 648.487 366.015 658.633 349.955 667.087C279.795 701.752 194.419 673.851 158.917 603.676C123.414 533.5 150.464 448.106 219.778 412.595C235.839 404.141 251.9 399.913 271.342 398.222C278.104 399.068 284.021 402.45 287.402 408.368Z" fill="#5B6770"/>
<path d="M285.713 539.425C289.94 547.88 300.929 552.107 309.382 547.034C317.835 542.807 322.061 531.816 316.989 523.361C312.763 514.906 301.774 510.678 293.321 515.751C284.868 520.824 281.487 530.125 285.713 539.425Z" fill="#E73843"/>
<path d="M380.385 568.171H379.54C377.004 567.326 376.159 565.635 377.004 563.098C382.921 541.116 380.385 517.442 370.242 496.305C360.098 476.013 342.347 459.949 320.369 451.494C317.833 450.648 316.988 448.112 317.833 446.421C318.678 443.884 321.214 443.039 322.905 443.884C346.573 453.185 366.015 470.095 377.004 492.923C387.993 514.905 391.374 541.116 384.612 564.789C384.612 567.326 382.921 568.171 380.385 568.171Z" fill="#5B6770"/>
<path d="M349.954 560.555H349.108C347.418 559.71 346.573 558.019 347.418 556.328C351.644 541.109 349.954 524.199 343.191 509.826C335.584 495.453 323.749 484.461 307.689 478.543C305.998 477.698 305.153 476.007 305.998 474.316C306.843 472.625 308.534 471.779 310.225 472.625C327.131 478.543 340.655 490.38 349.108 506.444C357.561 522.508 359.252 540.264 354.18 557.173C352.49 559.71 351.644 560.555 349.954 560.555Z" fill="#5B6770"/>
<path d="M413.353 580.85C412.508 580.85 411.663 580.85 411.663 580.85C407.436 580.005 404.9 574.932 405.746 570.704C413.353 541.112 409.972 510.675 396.447 483.619C382.923 456.563 359.254 435.426 330.514 424.435C326.287 422.744 323.752 417.671 325.442 413.443C327.133 409.216 332.205 406.68 336.431 408.37C368.552 421.053 394.757 444.726 410.818 475.164C426.033 505.602 430.259 541.112 421.806 574.086C420.116 578.314 417.58 580.85 413.353 580.85Z" fill="#5B6770"/>
<path d="M216.397 317.058L145.392 153.033L208.789 5.91842H131.867L74.3865 147.115V5.91842H0V317.058H74.3865V164.87L137.784 317.058H216.397ZM232.458 5.91842V239.273C232.458 251.955 234.148 262.947 236.684 273.093C239.22 283.239 245.137 291.693 252.745 299.303C260.353 306.912 270.496 311.985 284.021 316.213C296.701 320.44 313.607 322.131 333.049 322.131C354.181 322.131 371.087 319.595 382.921 315.367C395.601 311.14 404.899 304.376 411.662 295.921C418.424 287.466 422.65 278.166 425.186 267.174C427.722 256.183 428.568 243.501 428.568 229.973V5.91842H353.336V240.964C353.336 249.419 351.645 256.183 349.109 261.256C345.728 266.329 339.811 268.865 331.358 268.865C322.06 268.865 316.143 266.329 312.761 261.256C309.38 256.183 307.69 249.419 307.69 240.964V5.91842H232.458ZM464.916 5.91842V317.058H581.567C595.092 317.058 606.926 316.213 617.07 314.522C627.213 312.831 635.666 308.603 643.274 303.53C650.036 297.612 655.954 290.002 659.335 280.702C663.561 271.402 665.252 258.719 665.252 242.655V82.0124C665.252 54.9567 658.49 35.5105 644.965 23.6737C631.44 11.8368 611.998 5.91842 586.639 5.91842H464.916ZM538.457 59.1842H561.28C571.423 59.1842 579.031 61.7206 583.258 65.9481C587.484 70.1755 590.02 77.7849 590.02 87.9308V236.737C590.02 247.728 588.329 254.492 584.103 257.874C579.876 261.256 573.114 262.947 562.125 262.947H538.457V59.1842ZM860.516 317.058V262.101H775.141V186.853H855.445V131.896H775.141V60.0297H860.516V5.91842H699.909V317.058H860.516ZM1049.02 317.058V262.101H971.251V5.91842H895.174V317.058H1049.02ZM1251.05 101.459V85.3943C1251.05 72.712 1250.2 61.7206 1249.35 51.5748C1247.66 41.4289 1244.28 32.1286 1238.37 24.5192C1232.45 16.9098 1224 10.9913 1212.16 6.76391C1200.33 2.53646 1184.27 0 1163.98 0C1145.38 0 1130.17 1.69098 1117.49 5.07293C1104.81 8.45488 1095.51 13.5278 1087.9 20.2917C1080.29 27.0556 1075.22 36.356 1071.84 48.1928C1068.46 60.0297 1066.77 73.5575 1066.77 90.4672C1066.77 103.15 1067.62 114.141 1070.15 121.75C1072.69 129.36 1076.07 136.124 1079.45 141.197C1083.68 146.269 1087.9 150.497 1092.97 154.724C1098.05 158.106 1103.96 162.334 1109.88 166.561L1154.68 199.535C1161.44 204.608 1166.52 207.99 1170.74 211.372C1174.97 214.754 1177.5 217.29 1179.19 220.672C1180.89 224.054 1181.73 227.436 1182.58 230.818C1183.42 235.046 1183.42 239.273 1183.42 246.037C1183.42 248.574 1183.42 251.11 1182.58 253.646C1181.73 256.183 1180.89 258.719 1179.19 260.41C1177.5 262.101 1174.97 263.792 1171.59 265.483C1168.21 267.174 1163.98 267.174 1158.91 267.174C1152.99 267.174 1148.76 266.329 1146.23 264.638C1143.69 262.947 1141.16 260.41 1139.47 257.874C1137.78 255.337 1136.93 252.801 1136.93 249.419C1136.93 246.883 1136.08 244.346 1136.08 242.655V218.136H1061.7V236.737C1061.7 243.501 1061.7 251.955 1062.54 261.256C1063.39 270.556 1065.92 279.857 1070.15 287.466C1076.07 298.457 1087.06 306.912 1101.43 313.676C1116.64 319.595 1135.24 322.976 1158.91 322.976C1181.73 322.976 1200.33 320.44 1213.01 314.522C1226.53 309.449 1235.83 301.839 1242.59 293.384C1249.35 284.93 1252.74 275.629 1254.43 265.483C1256.12 255.337 1256.96 245.192 1256.96 235.046C1256.96 224.054 1256.12 214.754 1255.27 207.145C1254.43 199.535 1251.89 193.617 1248.51 187.698C1245.13 181.78 1241.75 176.707 1235.83 172.48C1230.76 168.252 1224 163.179 1216.39 158.106L1152.99 113.295C1147.92 109.913 1144.54 106.532 1142 102.304C1139.47 98.0766 1138.62 93.8492 1138.62 87.9308V76.0939C1138.62 69.33 1139.47 64.2571 1142 60.0297C1144.54 55.8022 1149.61 53.2658 1157.22 53.2658C1166.52 53.2658 1172.43 55.8022 1174.97 60.0297C1177.5 65.1026 1178.35 71.021 1178.35 79.4759V101.459H1251.05ZM1501.25 317.058L1430.25 153.033L1493.65 5.91842H1416.72L1359.24 147.115V5.91842H1284.86V317.058H1359.24V164.87L1422.64 317.058H1501.25ZM1593.39 5.91842H1518.16V317.058H1593.39V5.91842Z" fill="#5B6770"/>
<path d="M1594.24 488.692V473.473C1594.24 462.482 1593.39 452.336 1592.55 443.036C1591.7 433.735 1588.32 426.126 1583.25 419.362C1578.18 412.598 1570.57 407.525 1559.58 403.298C1549.44 399.916 1535.06 397.379 1516.47 397.379C1500.41 397.379 1486.04 399.07 1475.05 401.607C1464.06 404.143 1455.61 409.216 1448.84 415.135C1442.08 421.053 1437.01 429.508 1434.47 439.654C1431.94 449.8 1430.25 462.482 1430.25 476.855C1430.25 488.692 1431.09 497.992 1433.63 504.756C1435.32 511.52 1438.7 517.439 1442.08 522.512C1445.46 527.585 1449.69 530.967 1454.76 534.348C1459.83 537.73 1464.06 541.112 1469.98 545.34L1509.71 574.086C1515.62 578.314 1520.69 581.696 1524.08 584.232C1527.46 586.769 1529.99 589.305 1531.68 592.687C1533.37 595.224 1534.22 598.606 1534.22 601.988C1534.22 605.369 1535.06 609.597 1535.06 615.515C1535.06 617.206 1535.06 619.743 1534.22 622.279C1534.22 624.816 1532.53 626.507 1531.68 628.198C1529.99 629.889 1528.3 631.58 1524.92 632.425C1522.39 633.271 1518.16 634.116 1513.93 634.116C1508.86 634.116 1505.48 633.271 1502.94 631.58C1500.41 629.889 1498.72 628.198 1497.03 625.661C1496.18 623.125 1495.34 620.588 1494.49 618.052C1494.49 615.515 1494.49 613.824 1494.49 612.133V591.842H1428.56V608.751C1428.56 614.67 1428.56 622.279 1429.4 630.734C1430.25 639.189 1431.94 646.798 1436.16 653.562C1441.24 663.708 1451.38 671.318 1464.06 676.391C1477.58 681.463 1494.49 684.845 1515.62 684.845C1535.91 684.845 1551.97 682.309 1563.81 677.236C1575.64 672.163 1584.09 666.245 1590.01 658.635C1595.93 651.026 1599.31 642.571 1601 633.271C1602.69 623.97 1603.53 614.67 1603.53 606.215C1603.53 596.069 1602.69 588.46 1601.84 581.696C1601 574.932 1599.31 569.859 1595.93 564.786C1593.39 559.713 1589.16 555.486 1584.94 551.258C1580.71 547.031 1574.79 542.803 1567.19 537.73L1510.55 497.993C1506.32 495.456 1502.94 492.074 1501.25 488.692C1499.56 485.31 1498.72 481.083 1498.72 476.01V465.864C1498.72 459.946 1499.56 454.873 1502.1 451.491C1503.79 447.263 1508.86 445.572 1515.62 445.572C1524.08 445.572 1529.15 448.109 1531.68 452.336C1533.37 456.564 1534.22 462.482 1534.22 469.246V488.692H1594.24ZM1400.66 680.618V533.503H1310.21V580.005H1335.57V611.288C1335.57 614.67 1335.57 618.052 1334.73 621.434C1333.88 624.816 1333.04 627.352 1332.19 629.889C1330.5 632.425 1328.81 634.116 1326.28 635.807C1323.74 637.498 1319.51 638.344 1315.29 638.344C1306.83 638.344 1300.92 635.807 1298.38 631.58C1295.84 626.507 1294.15 621.434 1294.15 614.67V472.628C1294.15 465.018 1295 459.1 1297.54 454.027C1300.07 448.954 1305.99 446.418 1315.29 446.418C1324.59 446.418 1329.66 448.954 1332.19 453.182C1334.73 457.409 1336.42 464.173 1336.42 471.782V497.993H1401.51V465.864C1401.51 450.645 1398.97 437.963 1393.05 429.508C1387.98 420.208 1381.22 414.289 1372.77 409.216C1364.31 404.989 1355.02 401.607 1344.87 400.761C1334.73 399.07 1323.74 399.07 1313.6 399.07C1296.69 399.07 1283.17 400.761 1272.18 404.143C1261.19 407.525 1252.73 412.598 1245.97 419.362C1239.21 426.126 1234.98 435.426 1232.45 446.418C1229.91 457.409 1228.22 470.937 1228.22 487.001V600.297C1228.22 611.288 1229.07 621.434 1230.76 630.734C1232.45 640.034 1234.98 649.335 1239.21 656.099C1243.44 663.708 1249.35 669.627 1256.96 673.854C1264.57 678.081 1274.71 680.618 1286.55 680.618C1297.54 680.618 1306.83 678.927 1315.29 674.7C1323.74 671.318 1330.5 663.708 1337.26 654.408V679.772H1400.66V680.618ZM1196.1 680.618V403.298H1138.62V583.387L1080.29 403.298H1014.36V680.618H1070.99V499.683L1128.48 679.772H1196.1V680.618ZM972.095 403.298H905.316V680.618H972.095V403.298ZM862.205 680.618V403.298H795.427V514.902H748.09V403.298H682.156V680.618H748.09V563.941H795.427V679.772H862.205V680.618ZM654.261 451.491V403.298H475.903V451.491H530.847V680.618H598.472V451.491H654.261Z" fill="#212C55"/>
<path d="M66.7788 399.072H0V676.392H66.7788V399.072Z" fill="#212C55"/>
</g>
<defs>
<clipPath id="clip0">
<rect width="1601" height="684" fill="white"/>
</clipPath>
</defs>
</svg>
