%!PS-Adobe-3.0 EPSF-3.0
%%HiResBoundingBox: 0 0 283.465 68.76
%%BoundingBox: 0 0 284 69
%%Creator: Serif Affinity
%LanguageLevel: 3
%%DocumentData: Clean7Bit
%%EndComments
%%BeginProlog
101 dict begin
/m/moveto
/l/lineto
/c/curveto
3{load def}repeat
%%EndProlog
gsave
 
 % Group
  gsave
   newpath
   -0.001 0 m
   -0.001 0 283.465 0 283.465 0 c
   283.465 0 283.465 68.76 283.465 68.76 c
   283.465 68.76 -0.001 68.76 -0.001 68.76 c
   -0.001 68.76 -0.001 0 -0.001 0 c
   closepath
   eoclip
   
   % Curve
     newpath
     53.51 29.706 m
     53.51 29.706 53.44 30.449 53.44 30.449 c
     53.437 30.484 53.433 30.519 53.427 30.555 c
     53.427 30.555 53.379 30.909 53.379 30.909 c
     53.37 30.974 53.359 31.038 53.347 31.099 c
     53.347 31.099 53.194 31.826 53.194 31.826 c
     53.173 31.923 53.147 32.022 53.115 32.118 c
     53.115 32.118 52.883 32.819 52.883 32.819 c
     52.867 32.862 52.852 32.904 52.837 32.945 c
     52.837 32.945 52.706 33.279 52.706 33.279 c
     52.687 33.33 52.665 33.38 52.641 33.432 c
     52.641 33.432 52.335 34.097 52.335 34.097 c
     52.294 34.186 52.246 34.273 52.196 34.358 c
     52.196 34.358 51.817 34.987 51.817 34.987 c
     51.785 35.039 51.752 35.089 51.719 35.139 c
     51.719 35.139 51.52 35.421 51.52 35.421 c
     51.501 35.451 51.478 35.48 51.456 35.509 c
     51.456 35.509 51.017 36.086 51.017 36.086 c
     50.959 36.161 50.898 36.233 50.834 36.301 c
     50.834 36.301 50.334 36.832 50.334 36.832 c
     50.27 36.898 50.202 36.962 50.132 37.023 c
     50.132 37.023 49.569 37.508 49.569 37.508 c
     49.569 37.508 49.341 37.701 49.341 37.701 c
     49.275 37.758 49.207 37.811 49.137 37.861 c
     49.137 37.861 48.71 38.157 48.71 38.157 c
     48.591 38.396 48.463 38.632 48.334 38.865 c
     48.334 38.865 48.334 38.887 48.334 38.887 c
     48.338 38.944 48.338 39 48.338 39.057 c
     48.338 39.057 48.328 39.517 48.328 39.517 c
     48.328 39.565 48.325 39.614 48.321 39.661 c
     48.321 39.661 48.268 40.406 48.268 40.406 c
     48.261 40.51 48.246 40.617 48.227 40.72 c
     48.227 40.72 48.086 41.443 48.086 41.443 c
     48.084 41.454 47.981 41.949 47.981 41.949 c
     47.963 42.039 47.939 42.129 47.91 42.217 c
     47.91 42.217 47.686 42.917 47.686 42.917 c
     47.663 42.986 47.639 43.056 47.611 43.121 c
     47.611 43.121 47.429 43.563 47.429 43.563 c
     47.417 43.593 47.403 43.623 47.389 43.654 c
     47.389 43.654 47.088 44.313 47.088 44.313 c
     47.043 44.409 46.995 44.502 46.939 44.592 c
     46.939 44.592 46.563 45.212 46.563 45.212 c
     46.546 45.237 46.529 45.263 46.514 45.287 c
     46.514 45.287 46.259 45.674 46.259 45.674 c
     46.22 45.735 46.177 45.795 46.129 45.853 c
     46.129 45.853 45.689 46.417 45.689 46.417 c
     45.628 46.496 45.561 46.573 45.492 46.644 c
     45.492 46.644 44.681 47.467 44.681 47.467 c
     44.613 47.537 44.539 47.603 44.464 47.664 c
     44.464 47.664 43.915 48.11 43.915 48.11 c
     43.845 48.169 43.772 48.223 43.699 48.271 c
     43.699 48.271 43.354 48.498 43.354 48.498 c
     43.353 48.498 43.318 48.521 43.267 48.555 c
     43.585 48.647 43.881 48.751 44.153 48.87 c
     44.735 49.123 45.177 49.61 45.378 50.202 c
     46.027 50.467 46.513 50.741 46.863 51.036 c
     47.3 51.405 47.577 51.919 47.645 52.479 c
     48.074 52.769 48.453 53.07 48.774 53.372 c
     49.255 53.826 49.506 54.458 49.477 55.105 c
     49.675 55.291 49.859 55.479 50.026 55.665 c
     50.513 56.205 50.703 56.935 50.555 57.632 c
     50.749 57.86 50.921 58.083 51.067 58.293 c
     51.462 58.868 51.565 59.589 51.359 60.245 c
     51.526 60.503 51.659 60.763 51.758 61.017 c
     52.033 61.734 51.921 62.529 51.483 63.136 c
     51.826 63.778 51.84 64.555 51.496 65.22 c
     51.109 65.971 50.345 66.438 49.502 66.438 c
     49.423 66.438 49.342 66.434 49.266 66.424 c
     49.164 66.414 49.067 66.405 48.97 66.398 c
     48.673 66.808 48.242 67.11 47.749 67.246 c
     47.273 67.378 46.752 67.445 46.203 67.445 c
     46.077 67.445 45.949 67.442 45.818 67.435 c
     45.443 67.802 44.946 68.028 44.418 68.069 c
     44.313 68.077 44.203 68.081 44.093 68.081 c
     43.925 68.081 43.746 68.071 43.557 68.052 c
     43.146 68.434 42.604 68.649 42.033 68.649 c
     41.921 68.649 41.808 68.641 41.696 68.624 c
     41.314 68.566 40.933 68.485 40.558 68.381 c
     40.191 68.628 39.757 68.76 39.309 68.76 c
     39.114 68.76 38.916 68.734 38.726 68.683 c
     38.339 68.578 37.94 68.424 37.539 68.224 c
     37.265 68.34 36.968 68.399 36.669 68.399 c
     36.397 68.399 36.13 68.351 35.873 68.253 c
     35.581 68.144 35.283 67.99 34.986 67.799 c
     34.762 67.871 34.526 67.909 34.291 67.909 c
     33.859 67.909 33.437 67.785 33.073 67.551 c
     32.73 67.328 32.346 67.008 31.933 66.596 c
     31.859 66.603 31.785 66.608 31.713 66.608 c
     31.171 66.608 30.649 66.412 30.241 66.057 c
     28.605 64.637 27.654 62.873 27.134 61.579 c
     26.613 62.873 25.664 64.637 24.028 66.057 c
     23.618 66.412 23.096 66.608 22.556 66.608 c
     22.482 66.608 22.41 66.603 22.335 66.596 c
     21.922 67.008 21.539 67.328 21.194 67.551 c
     20.832 67.785 20.41 67.909 19.976 67.909 c
     19.743 67.909 19.507 67.871 19.283 67.799 c
     18.986 67.99 18.687 68.144 18.394 68.253 c
     18.139 68.351 17.872 68.399 17.6 68.399 c
     17.3 68.399 17.004 68.34 16.73 68.224 c
     16.329 68.424 15.931 68.578 15.543 68.683 c
     15.351 68.734 15.155 68.76 14.958 68.76 c
     14.512 68.76 14.077 68.628 13.709 68.381 c
     13.335 68.485 12.955 68.566 12.573 68.624 c
     12.46 68.641 12.348 68.649 12.235 68.649 c
     11.664 68.649 11.123 68.434 10.71 68.052 c
     10.523 68.071 10.342 68.081 10.175 68.081 c
     10.064 68.081 9.955 68.077 9.849 68.069 c
     9.323 68.028 8.825 67.802 8.45 67.435 c
     8.32 67.442 8.192 67.445 8.066 67.445 c
     7.517 67.445 6.996 67.378 6.52 67.246 c
     6.025 67.11 5.596 66.808 5.299 66.398 c
     5.201 66.405 5.103 66.414 5.004 66.424 c
     4.925 66.434 4.846 66.438 4.767 66.438 c
     3.922 66.438 3.158 65.971 2.772 65.22 c
     2.429 64.555 2.443 63.778 2.785 63.136 c
     2.346 62.529 2.235 61.734 2.511 61.018 c
     2.608 60.763 2.742 60.503 2.91 60.245 c
     2.703 59.589 2.807 58.868 3.201 58.293 c
     3.347 58.083 3.519 57.86 3.714 57.632 c
     3.565 56.935 3.756 56.205 4.242 55.665 c
     4.408 55.479 4.593 55.291 4.792 55.105 c
     4.763 54.458 5.014 53.826 5.495 53.372 c
     5.815 53.07 6.195 52.769 6.624 52.479 c
     6.692 51.919 6.967 51.405 7.404 51.036 c
     7.756 50.741 8.242 50.467 8.889 50.202 c
     9.092 49.61 9.534 49.123 10.116 48.87 c
     10.205 48.83 10.298 48.794 10.392 48.758 c
     10.392 48.758 10.295 48.699 10.295 48.699 c
     10.238 48.666 10.182 48.631 10.128 48.594 c
     10.128 48.594 9.618 48.238 9.618 48.238 c
     9.563 48.201 9.51 48.16 9.462 48.12 c
     9.462 48.12 8.98 47.728 8.98 47.728 c
     8.93 47.687 8.88 47.642 8.832 47.599 c
     8.832 47.599 8.382 47.174 8.382 47.174 c
     8.335 47.13 8.288 47.081 8.242 47.033 c
     8.242 47.033 7.831 46.58 7.831 46.58 c
     7.785 46.53 7.742 46.478 7.702 46.428 c
     7.702 46.428 7.578 46.271 7.578 46.271 c
     7.578 46.271 7.177 45.755 7.177 45.755 c
     7.134 45.699 7.092 45.641 7.053 45.582 c
     7.053 45.582 6.699 45.043 6.699 45.043 c
     6.659 44.982 6.62 44.918 6.585 44.856 c
     6.585 44.856 6.281 44.298 6.281 44.298 c
     6.243 44.23 6.209 44.16 6.178 44.091 c
     6.178 44.091 5.928 43.52 5.928 43.52 c
     5.911 43.484 5.896 43.445 5.882 43.407 c
     5.882 43.407 5.746 43.059 5.746 43.059 c
     5.732 43.022 5.718 42.985 5.706 42.949 c
     5.706 42.949 5.497 42.331 5.497 42.331 c
     5.471 42.25 5.449 42.17 5.429 42.088 c
     5.429 42.088 5.283 41.465 5.283 41.465 c
     5.268 41.4 5.256 41.335 5.246 41.27 c
     5.246 41.27 5.176 40.831 5.176 40.831 c
     5.172 40.808 5.17 40.786 5.167 40.765 c
     5.167 40.765 5.081 40.111 5.081 40.111 c
     5.068 40.02 5.061 39.925 5.058 39.835 c
     5.058 39.835 5.04 39.188 5.04 39.188 c
     5.039 39.139 5.039 39.09 5.04 39.04 c
     5.04 39.04 5.051 38.619 5.051 38.619 c
     4.906 38.344 4.765 38.068 4.629 37.789 c
     4.629 37.789 4.422 37.644 4.422 37.644 c
     4.367 37.607 4.313 37.567 4.263 37.523 c
     4.263 37.523 3.765 37.117 3.765 37.117 c
     3.711 37.075 3.661 37.029 3.612 36.983 c
     3.612 36.983 3.147 36.539 3.147 36.539 c
     3.099 36.493 3.051 36.444 3.006 36.394 c
     3.006 36.394 2.576 35.916 2.576 35.916 c
     2.53 35.865 2.486 35.812 2.444 35.759 c
     2.444 35.759 2.055 35.254 2.055 35.254 c
     2.011 35.197 1.971 35.14 1.935 35.083 c
     1.935 35.083 1.587 34.552 1.587 34.552 c
     1.548 34.493 1.512 34.43 1.479 34.37 c
     1.479 34.37 1.179 33.819 1.179 33.819 c
     1.143 33.755 1.111 33.687 1.082 33.62 c
     1.082 33.62 0.832 33.055 0.832 33.055 c
     0.803 32.988 0.775 32.919 0.751 32.851 c
     0.751 32.851 0.666 32.602 0.666 32.602 c
     0.666 32.602 0.454 31.988 0.454 31.988 c
     0.429 31.913 0.407 31.838 0.387 31.762 c
     0.387 31.762 0.233 31.138 0.233 31.138 c
     0.215 31.059 0.198 30.977 0.184 30.898 c
     0.184 30.898 0.091 30.277 0.091 30.277 c
     0.082 30.209 0.073 30.14 0.069 30.073 c
     0.069 30.073 0.043 29.712 0.043 29.712 c
     0.041 29.694 0.039 29.676 0.039 29.656 c
     0.039 29.656 0.004 29.006 0.004 29.006 c
     0 28.917 -0.002 28.826 0.003 28.735 c
     0.003 28.735 0.033 28.096 0.033 28.096 c
     0.037 28.019 0.044 27.938 0.055 27.859 c
     0.055 27.859 0.114 27.442 0.114 27.442 c
     0.115 27.43 0.219 26.752 0.219 26.752 c
     0.233 26.656 0.254 26.559 0.28 26.464 c
     0.28 26.464 0.448 25.838 0.448 25.838 c
     0.464 25.785 0.479 25.734 0.496 25.681 c
     0.496 25.681 0.643 25.246 0.643 25.246 c
     0.658 25.2 0.675 25.157 0.691 25.113 c
     0.691 25.113 0.935 24.5 0.935 24.5 c
     0.973 24.403 1.019 24.307 1.068 24.216 c
     1.068 24.216 1.378 23.643 1.378 23.643 c
     1.38 23.638 1.622 23.196 1.622 23.196 c
     1.671 23.109 1.725 23.022 1.783 22.941 c
     1.783 22.941 2.167 22.397 2.167 22.397 c
     2.196 22.354 2.228 22.314 2.26 22.272 c
     2.26 22.272 2.567 21.889 2.567 21.889 c
     2.6 21.846 2.636 21.804 2.674 21.764 c
     2.674 21.764 2.719 21.713 2.719 21.713 c
     3.064 20.126 3.565 18.585 4.214 17.107 c
     4.219 17.075 4.224 17.041 4.229 17.01 c
     4.229 17.01 4.36 16.237 4.36 16.237 c
     4.375 16.146 4.396 16.057 4.419 15.968 c
     4.419 15.968 4.628 15.221 4.628 15.221 c
     4.638 15.184 4.647 15.148 4.658 15.114 c
     4.658 15.114 4.786 14.722 4.786 14.722 c
     4.803 14.668 4.824 14.612 4.845 14.558 c
     4.845 14.558 5.136 13.823 5.136 13.823 c
     5.172 13.732 5.214 13.643 5.258 13.558 c
     5.258 13.558 5.627 12.861 5.627 12.861 c
     5.646 12.825 5.665 12.788 5.688 12.751 c
     5.688 12.751 5.911 12.373 5.911 12.373 c
     5.94 12.323 5.971 12.276 6.004 12.229 c
     6.004 12.229 6.454 11.566 6.454 11.566 c
     6.513 11.484 6.574 11.402 6.639 11.326 c
     6.639 11.326 7.163 10.719 7.163 10.719 c
     7.182 10.698 7.202 10.676 7.22 10.656 c
     7.22 10.656 7.525 10.323 7.525 10.323 c
     7.575 10.27 7.628 10.219 7.681 10.17 c
     7.681 10.17 8.274 9.622 8.274 9.622 c
     8.35 9.552 8.43 9.487 8.513 9.427 c
     8.513 9.427 9.17 8.948 9.17 8.948 c
     9.178 8.942 9.562 8.67 9.562 8.67 c
     9.635 8.619 9.713 8.57 9.791 8.526 c
     9.791 8.526 10.503 8.123 10.503 8.123 c
     10.589 8.073 10.678 8.03 10.771 7.989 c
     10.771 7.989 11.174 7.817 11.174 7.817 c
     11.174 7.817 11.535 7.664 11.535 7.664 c
     13.591 6.041 15.869 4.77 18.294 3.882 c
     18.294 3.882 18.651 3.486 18.651 3.486 c
     18.714 3.418 18.78 3.352 18.851 3.288 c
     18.851 3.288 19.479 2.725 19.479 2.725 c
     19.54 2.671 19.603 2.62 19.665 2.572 c
     19.665 2.572 19.943 2.365 19.954 2.357 c
     19.954 2.357 20.64 1.863 20.64 1.863 c
     20.718 1.808 20.798 1.756 20.882 1.707 c
     20.882 1.707 21.619 1.289 21.619 1.289 c
     21.703 1.242 21.789 1.197 21.876 1.16 c
     21.876 1.16 22.661 0.821 22.661 0.821 c
     22.718 0.795 22.775 0.772 22.833 0.75 c
     22.833 0.75 23.106 0.657 23.106 0.657 c
     23.137 0.643 23.169 0.632 23.201 0.624 c
     23.201 0.624 24.013 0.369 24.013 0.369 c
     24.103 0.342 24.196 0.317 24.289 0.3 c
     24.289 0.3 25.129 0.132 25.129 0.132 c
     25.221 0.111 25.314 0.099 25.408 0.09 c
     25.408 0.09 26.27 0.011 26.27 0.011 c
     26.352 0.004 26.434 0 26.516 0 c
     26.524 0 26.788 0.004 26.788 0.004 c
     26.788 0.004 27.639 0.013 27.639 0.013 c
     27.732 0.015 27.825 0.021 27.916 0.031 c
     27.916 0.031 28.771 0.132 28.771 0.132 c
     28.862 0.14 28.952 0.157 29.041 0.178 c
     29.041 0.178 29.887 0.365 29.887 0.365 c
     29.974 0.385 30.062 0.408 30.148 0.438 c
     30.148 0.438 30.978 0.711 30.978 0.711 c
     31.062 0.739 31.146 0.772 31.227 0.808 c
     31.227 0.808 32.031 1.167 32.031 1.167 c
     32.112 1.201 32.192 1.243 32.267 1.288 c
     32.267 1.288 33.037 1.727 33.037 1.727 c
     33.097 1.758 33.155 1.797 33.212 1.835 c
     33.212 1.835 33.312 1.903 33.326 1.913 c
     33.326 1.913 34.026 2.41 34.026 2.41 c
     34.095 2.46 34.165 2.513 34.23 2.571 c
     34.23 2.571 34.88 3.134 34.88 3.134 c
     34.952 3.196 35.02 3.263 35.086 3.334 c
     35.086 3.334 35.697 3.989 35.702 3.996 c
     35.733 4.029 35.762 4.063 35.788 4.095 c
     37.854 4.909 39.804 6.003 41.594 7.362 c
     41.594 7.362 42.336 7.61 42.336 7.61 c
     42.418 7.638 42.5 7.671 42.579 7.705 c
     42.579 7.705 43.415 8.08 43.415 8.08 c
     43.494 8.116 43.574 8.155 43.649 8.198 c
     43.649 8.198 44.445 8.652 44.445 8.652 c
     44.52 8.696 44.596 8.744 44.665 8.795 c
     44.665 8.795 45.41 9.321 45.41 9.321 c
     45.482 9.373 45.552 9.428 45.62 9.487 c
     45.62 9.487 46.304 10.084 46.304 10.084 c
     46.371 10.141 46.435 10.204 46.496 10.269 c
     46.496 10.269 47.117 10.927 47.117 10.927 c
     47.177 10.992 47.235 11.061 47.291 11.131 c
     47.291 11.131 47.836 11.845 47.836 11.845 c
     47.893 11.916 47.945 11.991 47.992 12.068 c
     47.992 12.068 48.46 12.827 48.46 12.827 c
     48.507 12.904 48.552 12.986 48.592 13.066 c
     48.592 13.066 48.978 13.865 48.978 13.865 c
     49.002 13.913 49.024 13.965 49.045 14.016 c
     49.045 14.016 49.13 14.222 49.13 14.222 c
     49.142 14.254 49.155 14.287 49.169 14.323 c
     49.169 14.323 49.474 15.168 49.474 15.168 c
     49.506 15.255 49.534 15.346 49.556 15.434 c
     49.556 15.434 49.771 16.3 49.771 16.3 c
     49.794 16.389 49.81 16.483 49.824 16.576 c
     49.824 16.576 49.946 17.451 49.946 17.451 c
     49.959 17.546 49.967 17.64 49.97 17.733 c
     49.97 17.733 49.998 18.608 49.998 18.608 c
     49.998 18.612 50.003 18.799 50.005 18.883 c
     50.369 19.925 50.662 20.993 50.881 22.082 c
     50.884 22.086 50.887 22.088 50.888 22.092 c
     50.888 22.092 51.031 22.272 51.031 22.272 c
     51.031 22.272 51.519 22.897 51.519 22.897 c
     51.574 22.968 51.627 23.043 51.674 23.121 c
     51.674 23.121 52.084 23.775 52.084 23.775 c
     52.133 23.853 52.178 23.936 52.22 24.02 c
     52.22 24.02 52.555 24.703 52.555 24.703 c
     52.59 24.777 52.623 24.852 52.651 24.925 c
     52.651 24.925 52.758 25.206 52.758 25.206 c
     52.762 25.217 53.034 25.967 53.034 25.967 c
     53.067 26.056 53.095 26.149 53.119 26.245 c
     53.119 26.245 53.299 26.981 53.299 26.981 c
     53.323 27.077 53.341 27.174 53.354 27.271 c
     53.354 27.271 53.451 28.013 53.451 28.013 c
     53.454 28.034 53.455 28.056 53.458 28.078 c
     53.458 28.078 53.494 28.419 53.494 28.419 c
     53.502 28.496 53.506 28.576 53.509 28.653 c
     53.509 28.653 53.522 29.405 53.522 29.405 c
     53.524 29.506 53.52 29.606 53.51 29.706 c
     /DeviceRGB setcolorspace
     0.137 0 0.029 setcolor
     fill
   
   % Curve
     5.749 23.019 m
     5.749 23.019 5.748 23.018 5.748 23.018 c
     /DeviceRGB setcolorspace
     0.934 0.18 0.386 setcolor
     gsave
      fill
      grestore
     /DeviceRGB setcolorspace
     0.934 0.189 0.259 setcolor
     0.1 setlinewidth
     1 setlinecap
     1 setlinejoin
     [] 0 setdash
     stroke
   
   % Curve
     6.886 24.24 m
     6.886 24.24 7.216 24.924 7.216 24.924 c
     7.216 24.924 7.253 25.036 7.253 25.036 c
     7.253 25.036 7.405 25.578 7.405 25.578 c
     7.405 25.578 7.472 25.709 7.472 25.709 c
     7.472 25.709 7.61 26.079 7.61 26.079 c
     7.61 26.079 7.69 26.324 7.69 26.324 c
     7.69 26.324 7.776 26.567 7.776 26.567 c
     7.776 26.567 7.918 27.113 7.918 27.113 c
     7.918 27.113 8.003 27.482 8.003 27.482 c
     8.003 27.482 8.094 28.123 8.094 28.123 c
     8.094 28.123 8.122 28.22 8.122 28.22 c
     8.122 28.22 8.179 28.435 8.179 28.435 c
     8.179 28.435 8.272 29.014 8.272 29.014 c
     8.272 29.014 8.287 29.077 8.287 29.077 c
     8.287 29.077 8.358 29.43 8.358 29.43 c
     8.358 29.43 8.399 29.778 8.399 29.778 c
     8.399 29.778 8.458 30.363 8.458 30.363 c
     8.458 30.363 8.465 30.435 8.465 30.435 c
     8.465 30.435 8.465 30.671 8.465 30.671 c
     8.465 30.671 8.478 30.848 8.478 30.848 c
     8.478 30.848 8.5 31.198 8.5 31.198 c
     8.5 31.198 8.514 31.474 8.514 31.474 c
     8.514 31.474 8.514 31.483 8.514 31.483 c
     8.514 31.483 8.505 31.715 8.505 31.715 c
     8.505 31.715 8.496 31.91 8.496 31.91 c
     8.496 31.91 8.493 31.963 8.493 31.963 c
     8.493 31.963 8.496 32.069 8.496 32.069 c
     8.496 32.069 8.497 32.204 8.497 32.204 c
     8.497 32.204 8.499 32.324 8.499 32.324 c
     8.499 32.324 8.497 32.435 8.497 32.435 c
     8.497 32.435 8.496 32.537 8.496 32.537 c
     8.496 32.537 8.492 32.633 8.492 32.633 c
     8.492 32.633 8.486 32.724 8.486 32.724 c
     8.486 32.724 8.48 32.813 8.48 32.813 c
     8.48 32.813 8.474 32.899 8.474 32.899 c
     8.474 32.899 8.465 32.987 8.465 32.987 c
     8.465 32.987 8.455 33.073 8.455 33.073 c
     8.455 33.073 8.454 33.077 8.454 33.077 c
     8.454 33.077 8.45 33.166 8.45 33.166 c
     8.45 33.166 8.446 33.263 8.446 33.263 c
     8.446 33.263 8.439 33.368 8.439 33.368 c
     8.439 33.368 8.429 33.483 8.429 33.483 c
     8.429 33.483 8.417 33.611 8.417 33.611 c
     8.417 33.611 8.4 33.756 8.4 33.756 c
     8.4 33.756 8.379 33.927 8.379 33.927 c
     8.379 33.927 8.365 34.024 8.365 34.024 c
     8.365 34.024 8.351 34.077 8.351 34.077 c
     8.351 34.077 8.347 34.116 8.347 34.116 c
     8.347 34.116 8.31 34.344 8.31 34.344 c
     8.31 34.344 8.255 34.63 8.255 34.63 c
     8.255 34.63 8.236 34.733 8.236 34.733 c
     8.236 34.733 8.162 34.922 8.162 34.922 c
     8.162 34.922 8.136 34.986 8.136 34.986 c
     8.136 34.986 8.053 35.275 8.053 35.275 c
     8.053 35.275 8.042 35.294 8.042 35.294 c
     8.042 35.294 7.848 35.602 7.848 35.602 c
     7.848 35.602 7.801 35.668 7.801 35.668 c
     7.801 35.668 7.692 35.745 7.692 35.745 c
     7.692 35.745 7.658 35.791 7.658 35.791 c
     7.658 35.791 7.603 35.895 7.603 35.895 c
     7.603 35.895 7.572 35.945 7.572 35.945 c
     7.572 35.945 7.328 36.097 7.328 36.097 c
     7.328 36.097 7.301 36.098 7.301 36.098 c
     7.301 36.098 6.997 36.08 6.997 36.08 c
     6.997 36.08 6.925 36.054 6.925 36.054 c
     6.925 36.054 6.715 35.959 6.715 35.959 c
     6.715 35.959 6.479 35.82 6.479 35.82 c
     6.479 35.82 5.955 35.454 5.955 35.454 c
     5.955 35.454 5.458 35.047 5.458 35.047 c
     5.458 35.047 4.993 34.604 4.993 34.604 c
     4.993 34.604 4.564 34.126 4.564 34.126 c
     4.564 34.126 4.175 33.622 4.175 33.622 c
     4.175 33.622 3.827 33.091 3.827 33.091 c
     3.827 33.091 3.529 32.54 3.529 32.54 c
     3.529 32.54 3.279 31.974 3.279 31.974 c
     3.279 31.974 3.195 31.734 3.195 31.734 c
     3.195 31.734 2.984 31.119 2.984 31.119 c
     2.984 31.119 2.83 30.499 2.83 30.499 c
     2.83 30.499 2.737 29.876 2.737 29.876 c
     2.737 29.876 2.709 29.514 2.709 29.514 c
     2.709 29.514 2.675 28.864 2.675 28.864 c
     2.675 28.864 2.706 28.224 2.706 28.224 c
     2.706 28.224 2.762 27.807 2.762 27.807 c
     2.762 27.807 2.863 27.16 2.863 27.16 c
     2.863 27.16 3.031 26.535 3.031 26.535 c
     3.031 26.535 3.179 26.099 3.179 26.099 c
     3.179 26.099 3.42 25.486 3.42 25.486 c
     3.42 25.486 3.732 24.91 3.732 24.91 c
     3.732 24.91 3.966 24.485 3.966 24.485 c
     3.966 24.485 4.351 23.942 4.351 23.942 c
     4.351 23.942 4.655 23.56 4.655 23.56 c
     4.655 23.56 4.98 23.202 4.98 23.202 c
     4.98 23.202 5.052 23.129 5.052 23.129 c
     5.052 23.129 5.15 23.079 5.15 23.079 c
     5.15 23.079 5.35 22.954 5.35 22.954 c
     5.35 22.954 5.408 22.942 5.408 22.942 c
     5.408 22.942 5.669 22.975 5.669 22.975 c
     5.669 22.975 5.747 23.018 5.747 23.018 c
     5.747 23.018 6.043 23.158 6.043 23.158 c
     6.043 23.158 6.164 23.258 6.164 23.258 c
     6.164 23.258 6.312 23.443 6.312 23.443 c
     6.312 23.443 6.436 23.577 6.436 23.577 c
     6.436 23.577 6.51 23.685 6.51 23.685 c
     6.51 23.685 6.605 23.897 6.605 23.897 c
     6.605 23.897 6.851 24.189 6.851 24.189 c
     6.851 24.189 6.886 24.24 6.886 24.24 c
     closepath
     /DeviceRGB setcolorspace
     0.934 0.18 0.386 setcolor
     fill
   
   % Curve
     19.878 44.721 m
     19.878 44.721 19.938 44.393 19.938 44.393 c
     19.938 44.393 19.986 44.246 19.986 44.246 c
     19.986 44.246 20.068 44.098 20.068 44.098 c
     20.068 44.098 20.182 43.938 20.182 43.938 c
     20.182 43.938 20.23 43.823 20.23 43.823 c
     20.23 43.823 20.313 43.678 20.313 43.678 c
     20.313 43.678 20.382 43.55 20.382 43.55 c
     20.382 43.55 20.557 43.3 20.557 43.3 c
     20.557 43.3 20.602 43.25 20.602 43.25 c
     20.602 43.25 20.76 43.1 20.76 43.1 c
     20.76 43.1 20.778 43.082 20.778 43.082 c
     20.778 43.082 21.013 42.884 21.013 42.884 c
     21.013 42.884 21.193 42.754 21.193 42.754 c
     21.193 42.754 21.257 42.704 21.257 42.704 c
     21.257 42.704 21.51 42.538 21.51 42.538 c
     21.51 42.538 21.61 42.481 21.61 42.481 c
     21.61 42.481 21.77 42.382 21.77 42.382 c
     21.77 42.382 22.021 42.25 22.021 42.25 c
     22.021 42.25 22.039 42.239 22.039 42.239 c
     22.039 42.239 22.317 42.1 22.317 42.1 c
     22.317 42.1 22.446 42.046 22.446 42.046 c
     22.446 42.046 22.607 41.971 22.607 41.971 c
     22.607 41.971 22.894 41.856 22.894 41.856 c
     22.894 41.856 22.91 41.849 22.91 41.849 c
     22.91 41.849 23.227 41.728 23.227 41.728 c
     23.227 41.728 23.388 41.678 23.388 41.678 c
     23.388 41.678 23.562 41.614 23.562 41.614 c
     23.562 41.614 23.919 41.508 23.919 41.508 c
     23.919 41.508 23.946 41.502 23.946 41.502 c
     23.946 41.502 24.299 41.404 24.299 41.404 c
     24.299 41.404 24.624 41.333 24.624 41.333 c
     24.624 41.333 24.708 41.313 24.708 41.313 c
     24.708 41.313 25.148 41.227 25.148 41.227 c
     25.148 41.227 25.305 41.204 25.305 41.204 c
     25.305 41.204 25.531 41.185 25.531 41.185 c
     25.531 41.185 25.617 41.175 25.617 41.175 c
     25.617 41.175 26.116 41.15 26.116 41.15 c
     26.116 41.15 26.616 41.156 26.616 41.156 c
     26.616 41.156 26.644 41.152 26.644 41.152 c
     26.644 41.152 27.081 41.115 27.081 41.115 c
     27.081 41.115 27.256 41.097 27.256 41.097 c
     27.256 41.097 27.311 41.093 27.311 41.093 c
     27.311 41.093 27.888 41.108 27.888 41.108 c
     27.888 41.108 28.548 41.167 28.548 41.167 c
     28.548 41.167 28.962 41.232 28.962 41.232 c
     28.962 41.232 29.212 41.289 29.212 41.289 c
     29.212 41.289 29.387 41.346 29.387 41.346 c
     29.387 41.346 29.927 41.417 29.927 41.417 c
     29.927 41.417 30.391 41.514 30.391 41.514 c
     30.391 41.514 30.652 41.593 30.652 41.593 c
     30.652 41.593 31.308 41.863 31.308 41.863 c
     31.308 41.863 31.693 42.07 31.693 42.07 c
     31.693 42.07 31.7 42.075 31.7 42.075 c
     31.7 42.075 31.936 42.175 31.936 42.175 c
     31.936 42.175 32.175 42.313 32.175 42.313 c
     32.175 42.313 32.541 42.506 32.541 42.506 c
     32.541 42.506 32.7 42.618 32.7 42.618 c
     32.7 42.618 33.021 42.91 33.021 42.91 c
     33.021 42.91 33.362 43.349 33.362 43.349 c
     33.362 43.349 33.383 43.367 33.383 43.367 c
     33.383 43.367 33.472 43.478 33.472 43.478 c
     33.472 43.478 33.533 43.589 33.533 43.589 c
     33.533 43.589 33.683 43.806 33.683 43.806 c
     33.683 43.806 33.862 44.274 33.862 44.274 c
     33.862 44.274 33.874 44.367 33.874 44.367 c
     33.874 44.367 33.871 44.723 33.871 44.723 c
     33.871 44.723 33.874 44.77 33.874 44.77 c
     33.874 44.77 33.792 45.252 33.792 45.252 c
     33.792 45.252 33.764 45.32 33.764 45.32 c
     33.764 45.32 33.651 45.644 33.651 45.644 c
     33.651 45.644 33.619 45.713 33.619 45.713 c
     33.619 45.713 33.596 45.748 33.596 45.748 c
     33.596 45.748 33.337 46.137 33.337 46.137 c
     33.337 46.137 33.212 46.284 33.212 46.284 c
     33.212 46.284 32.757 46.785 32.757 46.785 c
     32.757 46.785 32.243 47.234 32.243 47.234 c
     32.243 47.234 31.871 47.539 31.871 47.539 c
     31.871 47.539 31.318 47.921 31.318 47.921 c
     31.318 47.921 30.912 48.145 30.912 48.145 c
     30.912 48.145 30.336 48.455 30.336 48.455 c
     30.336 48.455 29.722 48.709 29.722 48.709 c
     29.722 48.709 29.327 48.83 29.327 48.83 c
     29.327 48.83 28.712 49.013 28.712 49.013 c
     28.712 49.013 28.07 49.141 28.07 49.141 c
     28.07 49.141 27.409 49.21 27.409 49.21 c
     27.409 49.21 27.104 49.224 27.104 49.224 c
     27.104 49.224 26.47 49.234 26.47 49.234 c
     26.47 49.234 25.83 49.19 25.83 49.19 c
     25.83 49.19 25.185 49.094 25.185 49.094 c
     25.185 49.094 24.545 48.944 24.545 48.944 c
     24.545 48.944 23.913 48.744 23.913 48.744 c
     23.913 48.744 23.296 48.495 23.296 48.495 c
     23.296 48.495 22.698 48.199 22.698 48.199 c
     22.698 48.199 22.124 47.86 22.124 47.86 c
     22.124 47.86 21.58 47.481 21.58 47.481 c
     21.58 47.481 21.071 47.063 21.071 47.063 c
     21.071 47.063 20.631 46.641 20.631 46.641 c
     20.631 46.641 20.605 46.616 20.605 46.616 c
     20.605 46.616 20.289 46.217 20.289 46.217 c
     20.289 46.217 20.164 46.017 20.164 46.017 c
     20.164 46.017 20.067 45.863 20.067 45.863 c
     20.067 45.863 20.053 45.83 20.053 45.83 c
     20.053 45.83 19.945 45.455 19.945 45.455 c
     19.945 45.455 19.935 45.363 19.935 45.363 c
     19.935 45.363 19.868 45.109 19.868 45.109 c
     19.868 45.109 19.864 45.081 19.864 45.081 c
     19.864 45.081 19.874 44.888 19.874 44.888 c
     19.874 44.888 19.878 44.721 19.878 44.721 c
     closepath
     /DeviceRGB setcolorspace
     0.934 0.18 0.386 setcolor
     fill
   
   % Curve
     18.569 46.906 m
     18.569 46.906 18.569 46.909 18.569 46.909 c
     /DeviceRGB setcolorspace
     0.934 0.18 0.386 setcolor
     gsave
      fill
      grestore
     /DeviceRGB setcolorspace
     0.934 0.189 0.259 setcolor
     0.1 setlinewidth
     1 setlinecap
     1 setlinejoin
     [] 0 setdash
     stroke
   
   % Curve
     7.952 38.379 m
     7.952 38.379 7.947 38.378 7.947 38.378 c
     /DeviceRGB setcolorspace
     0.934 0.18 0.386 setcolor
     gsave
      fill
      grestore
     /DeviceRGB setcolorspace
     0.934 0.189 0.259 setcolor
     0.1 setlinewidth
     1 setlinecap
     1 setlinejoin
     [] 0 setdash
     stroke
   
   % Curve
     7.768 38.436 m
     7.768 38.436 7.778 38.421 7.778 38.421 c
     7.778 38.421 7.951 38.379 7.951 38.379 c
     7.951 38.379 7.979 38.365 7.979 38.365 c
     7.979 38.365 8.246 38.345 8.246 38.345 c
     8.246 38.345 8.349 38.364 8.349 38.364 c
     8.349 38.364 8.667 38.494 8.667 38.494 c
     8.667 38.494 8.808 38.566 8.808 38.566 c
     8.808 38.566 9.151 38.677 9.151 38.677 c
     9.151 38.677 9.442 38.801 9.442 38.801 c
     9.442 38.801 9.679 38.937 9.679 38.937 c
     9.679 38.937 10.122 39.219 10.122 39.219 c
     10.122 39.219 10.24 39.308 10.24 39.308 c
     10.24 39.308 10.286 39.346 10.286 39.346 c
     10.286 39.346 10.535 39.484 10.535 39.484 c
     10.535 39.484 10.743 39.589 10.743 39.589 c
     10.743 39.589 10.963 39.711 10.963 39.711 c
     10.963 39.711 11.213 39.875 11.213 39.875 c
     11.213 39.875 11.649 40.18 11.649 40.18 c
     11.649 40.18 11.836 40.321 11.836 40.321 c
     11.836 40.321 11.891 40.357 11.891 40.357 c
     11.891 40.357 12.035 40.465 12.035 40.465 c
     12.035 40.465 12.385 40.739 12.385 40.739 c
     12.385 40.739 12.688 40.985 12.688 40.985 c
     12.688 40.985 12.755 41.04 12.755 41.04 c
     12.755 41.04 12.953 41.192 12.953 41.192 c
     12.953 41.192 12.978 41.21 12.978 41.21 c
     12.978 41.21 13.005 41.233 13.005 41.233 c
     13.005 41.233 13.2 41.379 13.2 41.379 c
     13.2 41.379 13.424 41.555 13.424 41.555 c
     13.424 41.555 13.571 41.676 13.571 41.676 c
     13.571 41.676 13.63 41.718 13.63 41.718 c
     13.63 41.718 13.823 41.868 13.823 41.868 c
     13.823 41.868 14.006 42.014 14.006 42.014 c
     14.006 42.014 14.181 42.161 14.181 42.161 c
     14.181 42.161 14.321 42.283 14.321 42.283 c
     14.321 42.283 14.349 42.306 14.349 42.306 c
     14.349 42.306 14.519 42.444 14.519 42.444 c
     14.519 42.444 14.685 42.586 14.685 42.586 c
     14.685 42.586 14.849 42.733 14.849 42.733 c
     14.849 42.733 15.014 42.886 15.014 42.886 c
     15.014 42.886 15.028 42.901 15.028 42.901 c
     15.028 42.901 15.189 43.042 15.189 43.042 c
     15.189 43.042 15.373 43.208 15.373 43.208 c
     15.373 43.208 15.56 43.388 15.56 43.388 c
     15.56 43.388 15.733 43.56 15.733 43.56 c
     15.733 43.56 15.758 43.582 15.758 43.582 c
     15.758 43.582 15.839 43.658 15.839 43.658 c
     15.839 43.658 15.866 43.679 15.866 43.679 c
     15.866 43.679 15.989 43.79 15.989 43.79 c
     15.989 43.79 16.235 44.018 16.235 44.018 c
     16.235 44.018 16.487 44.263 16.487 44.263 c
     16.487 44.263 16.503 44.276 16.503 44.276 c
     16.503 44.276 16.809 44.55 16.809 44.55 c
     16.809 44.55 16.834 44.575 16.834 44.575 c
     16.834 44.575 17.128 44.892 17.128 44.892 c
     17.128 44.892 17.32 45.111 17.32 45.111 c
     17.32 45.111 17.462 45.257 17.462 45.257 c
     17.462 45.257 17.492 45.29 17.492 45.29 c
     17.492 45.29 17.741 45.628 17.741 45.628 c
     17.741 45.628 17.863 45.813 17.863 45.813 c
     17.863 45.813 17.991 45.939 17.991 45.939 c
     17.991 45.939 18.073 46.038 18.073 46.038 c
     18.073 46.038 18.359 46.422 18.359 46.422 c
     18.359 46.422 18.384 46.45 18.384 46.45 c
     18.384 46.45 18.385 46.452 18.385 46.452 c
     18.385 46.452 18.544 46.81 18.544 46.81 c
     18.544 46.81 18.569 46.909 18.569 46.909 c
     18.569 46.909 18.681 47.127 18.681 47.127 c
     18.681 47.127 18.701 47.204 18.701 47.204 c
     18.701 47.204 18.655 47.356 18.655 47.356 c
     18.655 47.356 18.581 47.435 18.581 47.435 c
     18.581 47.435 18.562 47.445 18.562 47.445 c
     18.562 47.445 18.551 47.45 18.551 47.45 c
     18.551 47.45 18.509 47.486 18.509 47.486 c
     18.509 47.486 18.415 47.506 18.415 47.506 c
     18.415 47.506 18.084 47.578 18.084 47.578 c
     18.084 47.578 17.655 47.671 17.655 47.671 c
     17.655 47.671 17.017 47.745 17.017 47.745 c
     17.017 47.745 16.362 47.76 16.362 47.76 c
     16.362 47.76 15.996 47.76 15.996 47.76 c
     15.996 47.76 15.371 47.718 15.371 47.718 c
     15.371 47.718 14.739 47.623 14.739 47.623 c
     14.739 47.623 14.109 47.474 14.109 47.474 c
     14.109 47.474 13.889 47.406 13.889 47.406 c
     13.889 47.406 13.312 47.221 13.312 47.221 c
     13.312 47.221 12.745 46.991 12.745 46.991 c
     12.745 46.991 12.191 46.716 12.191 46.716 c
     12.191 46.716 11.657 46.399 11.657 46.399 c
     11.657 46.399 11.147 46.043 11.147 46.043 c
     11.147 46.043 10.667 45.653 10.667 45.653 c
     10.667 45.653 10.218 45.229 10.218 45.229 c
     10.218 45.229 9.807 44.778 9.807 44.778 c
     9.807 44.778 9.689 44.628 9.689 44.628 c
     9.689 44.628 9.286 44.111 9.286 44.111 c
     9.286 44.111 8.932 43.572 8.932 43.572 c
     8.932 43.572 8.626 43.014 8.626 43.014 c
     8.626 43.014 8.376 42.444 8.376 42.444 c
     8.376 42.444 8.242 42.094 8.242 42.094 c
     8.242 42.094 8.033 41.478 8.033 41.478 c
     8.033 41.478 7.888 40.854 7.888 40.854 c
     7.888 40.854 7.818 40.415 7.818 40.415 c
     7.818 40.415 7.732 39.761 7.732 39.761 c
     7.732 39.761 7.714 39.114 7.714 39.114 c
     7.714 39.114 7.726 38.68 7.726 38.68 c
     7.726 38.68 7.768 38.436 7.768 38.436 c
     closepath
     /DeviceRGB setcolorspace
     0.934 0.18 0.386 setcolor
     fill
   
   % Curve
     19.675 25.397 m
     19.675 25.397 20.44 25.718 20.44 25.718 c
     20.44 25.718 20.796 25.936 20.796 25.936 c
     20.796 25.936 21.208 26.154 21.208 26.154 c
     21.208 26.154 21.84 26.621 21.84 26.621 c
     21.84 26.621 21.929 26.678 21.929 26.678 c
     21.929 26.678 22.603 27.267 22.603 27.267 c
     22.603 27.267 22.773 27.465 22.773 27.465 c
     22.773 27.465 23.132 27.838 23.132 27.838 c
     23.132 27.838 23.211 27.927 23.211 27.927 c
     23.211 27.927 23.247 27.984 23.247 27.984 c
     23.247 27.984 23.586 28.41 23.586 28.41 c
     23.586 28.41 23.765 28.618 23.765 28.618 c
     23.765 28.618 24.25 29.35 24.25 29.35 c
     24.25 29.35 24.274 29.396 24.274 29.396 c
     24.274 29.396 24.662 30.113 24.662 30.113 c
     24.662 30.113 24.796 30.453 24.796 30.453 c
     24.796 30.453 24.99 30.899 24.99 30.899 c
     24.99 30.899 25.169 31.512 25.169 31.512 c
     25.169 31.512 25.232 31.7 25.232 31.7 c
     25.232 31.7 25.25 31.792 25.25 31.792 c
     25.25 31.792 25.349 32.471 25.349 32.471 c
     25.349 32.471 25.36 32.517 25.36 32.517 c
     25.36 32.517 25.368 32.58 25.368 32.58 c
     25.368 32.58 25.476 33.281 25.476 33.281 c
     25.476 33.281 25.483 33.537 25.483 33.537 c
     25.483 33.537 25.511 34.034 25.511 34.034 c
     25.511 34.034 25.483 34.428 25.483 34.428 c
     25.483 34.428 25.469 34.769 25.469 34.769 c
     25.469 34.769 25.386 35.247 25.386 35.247 c
     25.386 35.247 25.354 35.474 25.354 35.474 c
     25.354 35.474 25.212 35.981 25.212 35.981 c
     25.212 35.981 25.169 36.148 25.169 36.148 c
     25.169 36.148 25.168 36.151 25.168 36.151 c
     25.168 36.151 25.014 36.494 25.014 36.494 c
     25.014 36.494 24.968 36.63 24.968 36.63 c
     24.968 36.63 24.925 36.772 24.925 36.772 c
     24.925 36.772 24.747 37.166 24.747 37.166 c
     24.747 37.166 24.667 37.348 24.667 37.348 c
     24.667 37.348 24.499 37.63 24.499 37.63 c
     24.499 37.63 24.353 37.884 24.353 37.884 c
     24.353 37.884 24.24 38.031 24.24 38.031 c
     24.24 38.031 23.987 38.375 23.987 38.375 c
     23.987 38.375 23.986 38.377 23.986 38.377 c
     23.986 38.377 23.712 38.672 23.712 38.672 c
     23.712 38.672 23.583 38.816 23.583 38.816 c
     23.583 38.816 23.455 38.927 23.455 38.927 c
     23.455 38.927 23.205 39.15 23.205 39.15 c
     23.205 39.15 23.14 39.209 23.14 39.209 c
     23.14 39.209 22.958 39.34 22.958 39.34 c
     22.958 39.34 22.726 39.509 22.726 39.509 c
     22.726 39.509 22.666 39.555 22.666 39.555 c
     22.666 39.555 22.491 39.655 22.491 39.655 c
     22.491 39.655 22.268 39.787 22.268 39.787 c
     22.268 39.787 22.169 39.85 22.169 39.85 c
     22.169 39.85 22.046 39.905 22.046 39.905 c
     22.046 39.905 21.823 40.011 21.823 40.011 c
     21.823 40.011 21.653 40.095 21.653 40.095 c
     21.653 40.095 21.607 40.112 21.607 40.112 c
     21.607 40.112 21.379 40.195 21.379 40.195 c
     21.379 40.195 21.154 40.28 21.154 40.28 c
     21.154 40.28 21.119 40.294 21.119 40.294 c
     21.119 40.294 20.915 40.347 20.915 40.347 c
     20.915 40.347 20.669 40.415 20.669 40.415 c
     20.669 40.415 20.569 40.444 20.569 40.444 c
     20.569 40.444 20.409 40.471 20.409 40.471 c
     20.409 40.471 20.133 40.521 20.133 40.521 c
     20.133 40.521 20.004 40.544 20.004 40.544 c
     20.004 40.544 19.834 40.558 19.834 40.558 c
     19.834 40.558 19.511 40.586 19.511 40.586 c
     19.511 40.586 19.422 40.593 19.422 40.593 c
     19.422 40.593 19.161 40.591 19.161 40.591 c
     19.161 40.591 18.825 40.59 18.825 40.59 c
     18.825 40.59 18.772 40.584 18.772 40.584 c
     18.772 40.584 18.348 40.543 18.348 40.543 c
     18.348 40.543 18.216 40.532 18.216 40.532 c
     18.216 40.532 17.886 40.469 17.886 40.469 c
     17.886 40.469 17.599 40.416 17.599 40.416 c
     17.599 40.416 17.376 40.355 17.376 40.355 c
     17.376 40.355 16.977 40.245 16.977 40.245 c
     16.977 40.245 16.822 40.189 16.822 40.189 c
     16.822 40.189 16.519 40.077 16.519 40.077 c
     16.519 40.077 16.358 40.023 16.358 40.023 c
     16.358 40.023 16.213 39.959 16.213 39.959 c
     16.213 39.959 16.169 39.939 16.169 39.939 c
     16.169 39.939 15.749 39.741 15.749 39.741 c
     15.749 39.741 15.57 39.637 15.57 39.637 c
     15.57 39.637 15.148 39.395 15.148 39.395 c
     15.148 39.395 14.902 39.226 14.902 39.226 c
     14.902 39.226 14.56 38.994 14.56 38.994 c
     14.56 38.994 14.22 38.719 14.22 38.719 c
     14.22 38.719 13.992 38.537 13.992 38.537 c
     13.992 38.537 13.539 38.109 13.539 38.109 c
     13.539 38.109 13.452 38.029 13.452 38.029 c
     13.452 38.029 13.274 37.833 13.274 37.833 c
     13.274 37.833 12.934 37.465 12.934 37.465 c
     12.934 37.465 12.862 37.372 12.862 37.372 c
     12.862 37.372 12.835 37.34 12.835 37.34 c
     12.835 37.34 12.482 36.872 12.482 36.872 c
     12.482 36.872 12.091 36.255 12.091 36.255 c
     12.091 36.255 12.039 36.172 12.039 36.172 c
     12.039 36.172 11.732 35.587 11.732 35.587 c
     11.732 35.587 11.668 35.466 11.668 35.466 c
     11.668 35.466 11.353 34.727 11.353 34.727 c
     11.353 34.727 11.303 34.574 11.303 34.574 c
     11.303 34.574 11.099 33.962 11.099 33.962 c
     11.099 33.962 11.055 33.773 11.055 33.773 c
     11.055 33.773 11.01 33.589 11.01 33.589 c
     11.01 33.589 10.989 33.495 10.989 33.495 c
     10.989 33.495 10.916 33.16 10.916 33.16 c
     10.916 33.16 10.813 32.35 10.813 32.35 c
     10.813 32.35 10.813 32.349 10.813 32.349 c
     10.813 32.349 10.785 31.531 10.785 31.531 c
     10.785 31.531 10.807 31.21 10.807 31.21 c
     10.807 31.21 10.835 30.723 10.835 30.723 c
     10.835 30.723 10.943 30.078 10.943 30.078 c
     10.943 30.078 10.966 29.934 10.966 29.934 c
     10.966 29.934 11.178 29.167 11.178 29.167 c
     11.178 29.167 11.25 28.997 11.25 28.997 c
     11.25 28.997 11.377 28.675 11.377 28.675 c
     11.377 28.675 11.475 28.44 11.475 28.44 c
     11.475 28.44 11.728 28.003 11.728 28.003 c
     11.728 28.003 11.857 27.767 11.857 27.767 c
     11.857 27.767 12.314 27.152 12.314 27.152 c
     12.314 27.152 12.359 27.106 12.359 27.106 c
     12.359 27.106 12.842 26.59 12.842 26.59 c
     12.842 26.59 13.144 26.351 13.144 26.351 c
     13.144 26.351 13.437 26.104 13.437 26.104 c
     13.437 26.104 14.049 25.725 14.049 25.725 c
     14.049 25.725 14.091 25.697 14.091 25.697 c
     14.091 25.697 14.798 25.365 14.798 25.365 c
     14.798 25.365 15.07 25.289 15.07 25.289 c
     15.07 25.289 15.551 25.126 15.551 25.126 c
     15.551 25.126 16.17 25.019 16.17 25.019 c
     16.17 25.019 16.338 24.982 16.338 24.982 c
     16.338 24.982 17.152 24.931 17.152 24.931 c
     17.152 24.931 17.326 24.946 17.326 24.946 c
     17.326 24.946 17.981 24.971 17.981 24.971 c
     17.981 24.971 18.429 25.056 18.429 25.056 c
     18.429 25.056 18.505 25.072 18.505 25.072 c
     18.505 25.072 18.815 25.118 18.815 25.118 c
     18.815 25.118 19.636 25.378 19.636 25.378 c
     19.636 25.378 19.675 25.397 19.675 25.397 c
     closepath
     /DeviceRGB setcolorspace
     0.934 0.18 0.386 setcolor
     fill
   
   % Curve
     33.079 40.658 m
     33.079 40.658 32.689 40.518 32.689 40.518 c
     32.689 40.518 32.447 40.414 32.447 40.414 c
     32.447 40.414 32.139 40.287 32.139 40.287 c
     32.139 40.287 32.078 40.251 32.078 40.251 c
     32.078 40.251 31.987 40.208 31.987 40.208 c
     31.987 40.208 31.418 39.891 31.418 39.891 c
     31.418 39.891 31.129 39.705 31.129 39.705 c
     31.129 39.705 30.944 39.544 30.944 39.544 c
     30.944 39.544 30.771 39.376 30.771 39.376 c
     30.771 39.376 30.561 39.186 30.561 39.186 c
     30.561 39.186 30.279 38.9 30.279 38.9 c
     30.279 38.9 30.245 38.855 30.245 38.855 c
     30.245 38.855 30.009 38.504 30.009 38.504 c
     30.009 38.504 29.989 38.469 29.989 38.469 c
     29.989 38.469 29.807 38.202 29.807 38.202 c
     29.807 38.202 29.723 38.061 29.723 38.061 c
     29.723 38.061 29.63 37.93 29.63 37.93 c
     29.63 37.93 29.479 37.681 29.479 37.681 c
     29.479 37.681 29.477 37.676 29.477 37.676 c
     29.477 37.676 29.445 37.602 29.445 37.602 c
     29.445 37.602 29.357 37.422 29.357 37.422 c
     29.357 37.422 29.25 37.18 29.25 37.18 c
     29.25 37.18 29.161 36.945 29.161 36.945 c
     29.161 36.945 29.093 36.736 29.093 36.736 c
     29.093 36.736 29.086 36.717 29.086 36.717 c
     29.086 36.717 29.011 36.494 29.011 36.494 c
     29.011 36.494 28.947 36.27 28.947 36.27 c
     28.947 36.27 28.895 36.042 28.895 36.042 c
     28.895 36.042 28.859 35.845 28.859 35.845 c
     28.859 35.845 28.851 35.813 28.851 35.813 c
     28.851 35.813 28.805 35.573 28.805 35.573 c
     28.805 35.573 28.77 35.322 28.77 35.322 c
     28.77 35.322 28.745 35.058 28.745 35.058 c
     28.745 35.058 28.736 34.887 28.736 34.887 c
     28.736 34.887 28.725 34.773 28.725 34.773 c
     28.725 34.773 28.711 34.548 28.711 34.548 c
     28.711 34.548 28.712 34.462 28.712 34.462 c
     28.712 34.462 28.736 34.134 28.736 34.134 c
     28.736 34.134 28.75 34.038 28.75 34.038 c
     28.75 34.038 28.762 33.785 28.762 33.785 c
     28.762 33.785 28.762 33.76 28.762 33.76 c
     28.762 33.76 28.783 33.308 28.783 33.308 c
     28.783 33.308 28.822 32.855 28.822 32.855 c
     28.822 32.855 28.834 32.794 28.834 32.794 c
     28.834 32.794 28.919 32.455 28.919 32.455 c
     28.919 32.455 28.962 32.241 28.962 32.241 c
     28.962 32.241 29.127 31.582 29.127 31.582 c
     29.127 31.582 29.163 31.466 29.163 31.466 c
     29.163 31.466 29.409 30.918 29.409 30.918 c
     29.409 30.918 29.623 30.506 29.623 30.506 c
     29.623 30.506 29.739 30.266 29.739 30.266 c
     29.739 30.266 29.766 30.177 29.766 30.177 c
     29.766 30.177 29.773 30.16 29.773 30.16 c
     29.773 30.16 30.262 29.247 30.262 29.247 c
     30.262 29.247 30.393 29.035 30.393 29.035 c
     30.393 29.035 30.907 28.402 30.907 28.402 c
     30.907 28.402 31.296 27.986 31.296 27.986 c
     31.296 27.986 31.433 27.87 31.433 27.87 c
     31.433 27.87 31.694 27.578 31.694 27.578 c
     31.694 27.578 32.221 27.067 32.221 27.067 c
     32.221 27.067 32.63 26.758 32.63 26.758 c
     32.63 26.758 33.369 26.303 33.369 26.303 c
     33.369 26.303 33.626 26.182 33.626 26.182 c
     33.626 26.182 33.653 26.165 33.653 26.165 c
     33.653 26.165 34.544 25.701 34.544 25.701 c
     34.544 25.701 34.776 25.617 34.776 25.617 c
     34.776 25.617 35.826 25.372 35.826 25.372 c
     35.826 25.372 35.888 25.354 35.888 25.354 c
     35.888 25.354 35.935 25.349 35.935 25.349 c
     35.935 25.349 36.307 25.333 36.307 25.333 c
     36.307 25.333 37.002 25.219 37.002 25.219 c
     37.002 25.219 37.281 25.212 37.281 25.212 c
     37.281 25.212 38.05 25.292 38.05 25.292 c
     38.05 25.292 38.7 25.463 38.7 25.463 c
     38.7 25.463 38.853 25.492 38.853 25.492 c
     38.853 25.492 39.014 25.539 39.014 25.539 c
     39.014 25.539 39.402 25.718 39.402 25.718 c
     39.402 25.718 39.891 25.904 39.891 25.904 c
     39.891 25.904 40.418 26.221 40.418 26.221 c
     40.418 26.221 40.664 26.395 40.664 26.395 c
     40.664 26.395 40.687 26.417 40.687 26.417 c
     40.687 26.417 41.328 26.978 41.328 26.978 c
     41.328 26.978 41.887 27.657 41.887 27.657 c
     41.887 27.657 42.019 27.885 42.019 27.885 c
     42.019 27.885 42.227 28.203 42.227 28.203 c
     42.227 28.203 42.341 28.395 42.341 28.395 c
     42.341 28.395 42.682 29.2 42.682 29.2 c
     42.682 29.2 42.812 29.668 42.812 29.668 c
     42.812 29.668 42.924 30.049 42.924 30.049 c
     42.924 30.049 43.067 30.924 43.067 30.924 c
     43.067 30.924 43.099 31.642 43.099 31.642 c
     43.099 31.642 43.11 31.841 43.11 31.841 c
     43.11 31.841 43.055 32.757 43.055 32.757 c
     43.055 32.757 43.055 32.769 43.055 32.769 c
     43.055 32.769 43.039 32.859 43.039 32.859 c
     43.039 32.859 42.876 33.721 42.876 33.721 c
     42.876 33.721 42.78 34.055 42.78 34.055 c
     42.78 34.055 42.541 34.869 42.541 34.869 c
     42.541 34.869 42.212 35.647 42.212 35.647 c
     42.212 35.647 41.992 36.06 41.992 36.06 c
     41.992 36.06 41.581 36.787 41.581 36.787 c
     41.581 36.787 41.106 37.444 41.106 37.444 c
     41.106 37.444 41.088 37.468 41.088 37.468 c
     41.088 37.468 40.798 37.813 40.798 37.813 c
     40.798 37.813 40.246 38.422 40.246 38.422 c
     40.246 38.422 39.948 38.684 39.948 38.684 c
     39.948 38.684 39.488 39.076 39.488 39.076 c
     39.488 39.076 39.286 39.229 39.286 39.229 c
     39.286 39.229 38.807 39.57 38.807 39.57 c
     38.807 39.57 38.546 39.734 38.546 39.734 c
     38.546 39.734 37.847 40.104 37.847 40.104 c
     37.847 40.104 37.604 40.232 37.604 40.232 c
     37.604 40.232 37.54 40.259 37.54 40.259 c
     37.54 40.259 36.713 40.544 36.713 40.544 c
     36.713 40.544 36.478 40.629 36.478 40.629 c
     36.478 40.629 36.453 40.636 36.453 40.636 c
     36.453 40.636 35.446 40.825 35.446 40.825 c
     35.446 40.825 35.26 40.847 35.26 40.847 c
     35.26 40.847 34.411 40.847 34.411 40.847 c
     34.411 40.847 34.349 40.844 34.349 40.844 c
     34.349 40.844 34.193 40.84 34.193 40.84 c
     34.193 40.84 33.508 40.747 33.508 40.747 c
     33.508 40.747 33.079 40.658 33.079 40.658 c
     closepath
     /DeviceRGB setcolorspace
     0.934 0.18 0.386 setcolor
     fill
   
   % Curve
     34.728 46.973 m
     34.728 46.973 34.817 46.819 34.817 46.819 c
     34.817 46.819 34.824 46.792 34.824 46.792 c
     34.824 46.792 34.86 46.667 34.86 46.667 c
     34.86 46.667 35.099 46.288 35.099 46.288 c
     35.099 46.288 35.246 46.12 35.246 46.12 c
     35.246 46.12 35.421 45.928 35.421 45.928 c
     35.421 45.928 35.482 45.832 35.482 45.832 c
     35.482 45.832 35.507 45.802 35.507 45.802 c
     35.507 45.802 35.705 45.567 35.705 45.567 c
     35.705 45.567 35.862 45.388 35.862 45.388 c
     35.862 45.388 35.991 45.243 35.991 45.243 c
     35.991 45.243 36.038 45.195 36.038 45.195 c
     36.038 45.195 36.063 45.17 36.063 45.17 c
     36.063 45.17 36.109 45.124 36.109 45.124 c
     36.109 45.124 36.219 45.016 36.219 45.016 c
     36.219 45.016 36.296 44.942 36.296 44.942 c
     36.296 44.942 36.319 44.916 36.319 44.916 c
     36.319 44.916 36.405 44.813 36.405 44.813 c
     36.405 44.813 36.488 44.716 36.488 44.716 c
     36.488 44.716 36.57 44.621 36.57 44.621 c
     36.57 44.621 36.656 44.53 36.656 44.53 c
     36.656 44.53 36.745 44.436 36.745 44.436 c
     36.745 44.436 36.841 44.339 36.841 44.339 c
     36.841 44.339 36.945 44.235 36.945 44.235 c
     36.945 44.235 37.063 44.121 37.063 44.121 c
     37.063 44.121 37.201 43.993 37.201 43.993 c
     37.201 43.993 37.226 43.97 37.226 43.97 c
     37.226 43.97 37.383 43.832 37.383 43.832 c
     37.383 43.832 37.56 43.642 37.56 43.642 c
     37.56 43.642 37.794 43.4 37.794 43.4 c
     37.794 43.4 38.045 43.146 38.045 43.146 c
     38.045 43.146 38.133 43.067 38.133 43.067 c
     38.133 43.067 38.734 42.539 38.734 42.539 c
     38.734 42.539 38.784 42.485 38.784 42.485 c
     38.784 42.485 38.788 42.481 38.788 42.481 c
     38.788 42.481 39.504 41.829 39.504 41.829 c
     39.504 41.829 40.248 41.253 40.248 41.253 c
     40.248 41.253 40.726 40.943 40.726 40.943 c
     40.726 40.943 40.865 40.838 40.865 40.838 c
     40.865 40.838 40.988 40.715 40.988 40.715 c
     40.988 40.715 41.67 40.143 41.67 40.143 c
     41.67 40.143 42.354 39.667 42.354 39.667 c
     42.354 39.667 42.907 39.36 42.907 39.36 c
     42.907 39.36 43.016 39.269 43.016 39.269 c
     43.016 39.269 43.604 38.869 43.604 38.869 c
     43.604 38.869 43.798 38.765 43.798 38.765 c
     43.798 38.765 44.152 38.593 44.152 38.593 c
     44.152 38.593 44.38 38.526 44.38 38.526 c
     44.38 38.526 44.626 38.367 44.626 38.367 c
     44.626 38.367 44.95 38.222 44.95 38.222 c
     44.95 38.222 45.022 38.199 45.022 38.199 c
     45.022 38.199 45.341 38.196 45.341 38.196 c
     45.341 38.196 45.45 38.18 45.45 38.18 c
     45.45 38.18 45.54 38.208 45.54 38.208 c
     45.54 38.208 45.628 38.358 45.628 38.358 c
     45.628 38.358 45.635 38.407 45.635 38.407 c
     45.635 38.407 45.637 38.422 45.637 38.422 c
     45.637 38.422 45.664 39.007 45.664 39.007 c
     45.664 39.007 45.654 39.467 45.654 39.467 c
     45.654 39.467 45.6 40.213 45.6 40.213 c
     45.6 40.213 45.459 40.936 45.459 40.936 c
     45.459 40.936 45.364 41.402 45.364 41.402 c
     45.364 41.402 45.14 42.099 45.14 42.099 c
     45.14 42.099 44.957 42.541 44.957 42.541 c
     44.957 42.541 44.655 43.199 44.655 43.199 c
     44.655 43.199 44.279 43.818 44.279 43.818 c
     44.279 43.818 44.023 44.206 44.023 44.206 c
     44.023 44.206 43.583 44.768 43.583 44.768 c
     43.583 44.768 43.265 45.092 43.265 45.092 c
     43.265 45.092 42.775 45.591 42.775 45.591 c
     42.775 45.591 42.226 46.038 42.226 46.038 c
     42.226 46.038 41.879 46.266 41.879 46.266 c
     41.879 46.266 41.304 46.642 41.304 46.642 c
     41.304 46.642 40.681 46.962 40.681 46.962 c
     40.681 46.962 40.023 47.223 40.023 47.223 c
     40.023 47.223 39.715 47.333 39.715 47.333 c
     39.715 47.333 39.058 47.523 39.058 47.523 c
     39.058 47.523 38.378 47.656 38.378 47.656 c
     38.378 47.656 37.68 47.73 37.68 47.73 c
     37.68 47.73 36.97 47.745 36.97 47.745 c
     36.97 47.745 36.801 47.745 36.801 47.745 c
     36.801 47.745 36.13 47.703 36.13 47.703 c
     36.13 47.703 35.46 47.608 35.46 47.608 c
     35.46 47.608 34.817 47.464 34.817 47.464 c
     34.817 47.464 34.793 47.448 34.793 47.448 c
     34.793 47.448 34.689 47.366 34.689 47.366 c
     34.689 47.366 34.688 47.209 34.688 47.209 c
     34.688 47.209 34.712 47.171 34.712 47.171 c
     34.712 47.171 34.728 46.973 34.728 46.973 c
     closepath
     /DeviceRGB setcolorspace
     0.934 0.18 0.386 setcolor
     fill
   
   % Curve
     50.776 30.195 m
     50.776 30.195 50.729 30.548 50.729 30.548 c
     50.729 30.548 50.576 31.274 50.576 31.274 c
     50.576 31.274 50.342 31.978 50.342 31.978 c
     50.342 31.978 50.212 32.31 50.212 32.31 c
     50.212 32.31 49.906 32.977 49.906 32.977 c
     49.906 32.977 49.526 33.606 49.526 33.606 c
     49.526 33.606 49.329 33.888 49.329 33.888 c
     49.329 33.888 48.889 34.465 48.889 34.465 c
     48.889 34.465 48.389 34.995 48.389 34.995 c
     48.389 34.995 47.832 35.473 47.832 35.473 c
     47.832 35.473 47.605 35.668 47.605 35.668 c
     47.605 35.668 47.015 36.079 47.015 36.079 c
     47.015 36.079 46.457 36.393 46.457 36.393 c
     46.457 36.393 46.214 36.498 46.214 36.498 c
     46.214 36.498 46.018 36.481 46.018 36.481 c
     46.018 36.481 46.001 36.465 46.001 36.465 c
     46.001 36.465 45.782 36.391 45.782 36.391 c
     45.782 36.391 45.589 36.176 45.589 36.176 c
     45.589 36.176 45.547 36.062 45.547 36.062 c
     45.547 36.062 45.526 35.99 45.526 35.99 c
     45.526 35.99 45.429 35.823 45.429 35.823 c
     45.429 35.823 45.333 35.522 45.333 35.522 c
     45.333 35.522 45.3 35.388 45.3 35.388 c
     45.3 35.388 45.273 35.329 45.273 35.329 c
     45.273 35.329 45.209 35.051 45.209 35.051 c
     45.209 35.051 45.143 34.651 45.143 34.651 c
     45.143 34.651 45.14 34.609 45.14 34.609 c
     45.14 34.609 45.138 34.559 45.138 34.559 c
     45.138 34.559 45.086 34.28 45.086 34.28 c
     45.086 34.28 45.04 33.942 45.04 33.942 c
     45.04 33.942 45.013 33.631 45.013 33.631 c
     45.013 33.631 45.004 33.334 45.004 33.334 c
     45.004 33.334 45.008 33.041 45.008 33.041 c
     45.008 33.041 45.027 32.748 45.027 32.748 c
     45.027 32.748 45.027 32.742 45.027 32.742 c
     45.027 32.742 45.013 32.438 45.013 32.438 c
     45.013 32.438 45.013 32.121 45.013 32.121 c
     45.013 32.121 45.03 31.778 45.03 31.778 c
     45.03 31.778 45.065 31.395 45.065 31.395 c
     45.065 31.395 45.119 30.955 45.119 30.955 c
     45.119 30.955 45.177 30.582 45.177 30.582 c
     45.177 30.582 45.18 30.491 45.18 30.491 c
     45.18 30.491 45.184 30.441 45.184 30.441 c
     45.184 30.441 45.264 29.805 45.264 29.805 c
     45.264 29.805 45.339 29.327 45.339 29.327 c
     45.339 29.327 45.369 29.206 45.369 29.206 c
     45.369 29.206 45.405 28.957 45.405 28.957 c
     45.405 28.957 45.516 28.324 45.516 28.324 c
     45.516 28.324 45.619 27.914 45.619 27.914 c
     45.619 27.914 45.645 27.723 45.645 27.723 c
     45.645 27.723 45.698 27.404 45.698 27.404 c
     45.698 27.404 45.914 26.584 45.914 26.584 c
     45.914 26.584 46.154 25.952 46.154 25.952 c
     46.154 25.952 46.175 25.857 46.175 25.857 c
     46.175 25.857 46.394 25.171 46.394 25.171 c
     46.394 25.171 46.658 24.597 46.658 24.597 c
     46.658 24.597 46.95 24.163 46.95 24.163 c
     46.95 24.163 46.958 24.138 46.958 24.138 c
     46.958 24.138 47.187 23.721 47.187 23.721 c
     47.187 23.721 47.45 23.426 47.45 23.426 c
     47.45 23.426 47.69 23.281 47.69 23.281 c
     47.69 23.281 47.721 23.237 47.721 23.237 c
     47.721 23.237 47.821 23.174 47.821 23.174 c
     47.821 23.174 47.932 23.128 47.932 23.128 c
     47.932 23.128 48.175 23.172 48.175 23.172 c
     48.175 23.172 48.315 23.265 48.315 23.265 c
     48.315 23.265 48.383 23.329 48.383 23.329 c
     48.383 23.329 48.426 23.367 48.426 23.367 c
     48.426 23.367 48.786 23.744 48.786 23.744 c
     48.786 23.744 48.926 23.924 48.926 23.924 c
     48.926 23.924 49.408 24.542 49.408 24.542 c
     49.408 24.542 49.818 25.196 49.818 25.196 c
     49.818 25.196 50.151 25.879 50.151 25.879 c
     50.151 25.879 50.258 26.159 50.258 26.159 c
     50.258 26.159 50.521 26.881 50.521 26.881 c
     50.521 26.881 50.7 27.617 50.7 27.617 c
     50.7 27.617 50.797 28.36 50.797 28.36 c
     50.797 28.36 50.833 28.702 50.833 28.702 c
     50.833 28.702 50.847 29.453 50.847 29.453 c
     50.847 29.453 50.776 30.195 50.776 30.195 c
     closepath
     /DeviceRGB setcolorspace
     0.934 0.18 0.386 setcolor
     fill
   
   % Curve
     18.154 12.041 m
     18.154 12.041 18.153 12.05 18.153 12.05 c
     /DeviceRGB setcolorspace
     0.934 0.18 0.386 setcolor
     gsave
      fill
      grestore
     /DeviceRGB setcolorspace
     0.934 0.189 0.259 setcolor
     0.1 setlinewidth
     1 setlinecap
     1 setlinejoin
     [] 0 setdash
     stroke
   
   % Curve
     18.206 13.31 m
     18.206 13.31 18.192 13.378 18.192 13.378 c
     18.192 13.378 18.001 14.115 18.001 14.115 c
     18.001 14.115 17.998 14.163 17.998 14.163 c
     17.998 14.163 17.796 15.097 17.796 15.097 c
     17.796 15.097 17.764 15.18 17.764 15.18 c
     17.764 15.18 17.417 15.995 17.417 15.995 c
     17.417 15.995 17.098 16.529 17.098 16.529 c
     17.098 16.529 16.96 16.881 16.96 16.881 c
     16.96 16.881 16.585 17.533 16.585 17.533 c
     16.585 17.533 16.449 17.761 16.449 17.761 c
     16.449 17.761 16.419 17.795 16.419 17.795 c
     16.419 17.795 15.862 18.6 15.862 18.6 c
     15.862 18.6 15.184 19.351 15.184 19.351 c
     15.184 19.351 15.098 19.425 15.098 19.425 c
     15.098 19.425 14.88 19.648 14.88 19.648 c
     14.88 19.648 14.52 20.094 14.52 20.094 c
     14.52 20.094 13.807 20.75 13.807 20.75 c
     13.807 20.75 13.575 20.904 13.575 20.904 c
     13.575 20.904 13.363 21.082 13.363 21.082 c
     13.363 21.082 13.063 21.329 13.063 21.329 c
     13.063 21.329 12.986 21.376 12.986 21.376 c
     12.986 21.376 12.839 21.462 12.839 21.462 c
     12.839 21.462 12.741 21.521 12.741 21.521 c
     12.741 21.521 12.668 21.564 12.668 21.564 c
     12.668 21.564 12.611 21.596 12.611 21.596 c
     12.611 21.596 12.564 21.622 12.564 21.622 c
     12.564 21.622 12.524 21.644 12.524 21.644 c
     12.524 21.644 12.489 21.662 12.489 21.662 c
     12.489 21.662 12.457 21.68 12.457 21.68 c
     12.457 21.68 12.428 21.696 12.428 21.696 c
     12.428 21.696 12.402 21.71 12.402 21.71 c
     12.402 21.71 12.374 21.723 12.374 21.723 c
     12.374 21.723 12.343 21.739 12.343 21.739 c
     12.343 21.739 12.322 21.751 12.322 21.751 c
     12.322 21.751 12.299 21.768 12.299 21.768 c
     12.299 21.768 12.272 21.785 12.272 21.785 c
     12.272 21.785 12.245 21.801 12.245 21.801 c
     12.245 21.801 12.215 21.819 12.215 21.819 c
     12.215 21.819 12.182 21.837 12.182 21.837 c
     12.182 21.837 12.145 21.861 12.145 21.861 c
     12.145 21.861 12.099 21.885 12.099 21.885 c
     12.099 21.885 12.045 21.917 12.045 21.917 c
     12.045 21.917 11.975 21.955 11.975 21.955 c
     11.975 21.955 11.879 22.007 11.879 22.007 c
     11.879 22.007 11.74 22.082 11.74 22.082 c
     11.74 22.082 11.668 22.122 11.668 22.122 c
     11.668 22.122 11.352 22.224 11.352 22.224 c
     11.352 22.224 11.126 22.294 11.126 22.294 c
     11.126 22.294 10.929 22.386 10.929 22.386 c
     10.929 22.386 10.235 22.54 10.235 22.54 c
     10.235 22.54 9.836 22.529 9.836 22.529 c
     9.836 22.529 9.644 22.547 9.644 22.547 c
     9.644 22.547 9.575 22.564 9.575 22.564 c
     9.575 22.564 8.996 22.55 8.996 22.55 c
     8.996 22.55 8.453 22.382 8.453 22.382 c
     8.453 22.382 8.337 22.321 8.337 22.321 c
     8.337 22.321 7.98 22.105 7.98 22.105 c
     7.98 22.105 7.825 21.94 7.825 21.94 c
     7.825 21.94 7.589 21.751 7.589 21.751 c
     7.589 21.751 7.304 21.357 7.304 21.357 c
     7.304 21.357 7.271 21.305 7.271 21.305 c
     7.271 21.305 7.036 20.686 7.036 20.686 c
     7.036 20.686 7.026 20.648 7.026 20.648 c
     7.026 20.648 6.912 20.148 6.912 20.148 c
     6.912 20.148 6.903 20.087 6.903 20.087 c
     6.903 20.087 6.812 19.351 6.812 19.351 c
     6.812 19.351 6.79 18.582 6.79 18.582 c
     6.79 18.582 6.841 17.823 6.841 17.823 c
     6.841 17.823 6.866 17.455 6.866 17.455 c
     6.866 17.455 6.997 16.683 6.997 16.683 c
     6.997 16.683 7.205 15.937 7.205 15.937 c
     7.205 15.937 7.33 15.545 7.33 15.545 c
     7.33 15.545 7.622 14.809 7.622 14.809 c
     7.622 14.809 7.992 14.112 7.992 14.112 c
     7.992 14.112 8.215 13.734 8.215 13.734 c
     8.215 13.734 8.664 13.074 8.664 13.074 c
     8.664 13.074 9.187 12.469 9.187 12.469 c
     9.187 12.469 9.493 12.137 9.493 12.137 c
     9.493 12.137 10.086 11.589 10.086 11.589 c
     10.086 11.589 10.743 11.11 10.743 11.11 c
     10.743 11.11 11.107 10.853 11.107 10.853 c
     11.107 10.853 11.82 10.45 11.82 10.45 c
     11.82 10.45 12.218 10.281 12.218 10.281 c
     12.218 10.281 12.971 9.962 12.971 9.962 c
     12.971 9.962 13.766 9.725 13.766 9.725 c
     13.766 9.725 14.602 9.575 14.602 9.575 c
     14.602 9.575 14.595 9.577 14.595 9.577 c
     14.595 9.577 14.966 9.51 14.966 9.51 c
     14.966 9.51 15.593 9.488 15.593 9.488 c
     15.593 9.488 15.638 9.495 15.638 9.495 c
     15.638 9.495 15.745 9.505 15.745 9.505 c
     15.745 9.505 16.103 9.538 16.103 9.538 c
     16.103 9.538 16.271 9.567 16.271 9.567 c
     16.271 9.567 16.905 9.809 16.905 9.809 c
     16.905 9.809 16.984 9.857 16.984 9.857 c
     16.984 9.857 17.381 10.245 17.381 10.245 c
     17.381 10.245 17.433 10.285 17.433 10.285 c
     17.433 10.285 17.464 10.323 17.464 10.323 c
     17.464 10.323 17.495 10.388 17.495 10.388 c
     17.495 10.388 17.931 10.952 17.931 10.952 c
     17.931 10.952 17.942 10.97 17.942 10.97 c
     17.942 10.97 18.138 11.678 18.138 11.678 c
     18.138 11.678 18.153 12.049 18.153 12.049 c
     18.153 12.049 18.22 12.464 18.22 12.464 c
     18.22 12.464 18.206 13.31 18.206 13.31 c
     closepath
     /DeviceRGB setcolorspace
     0.934 0.18 0.386 setcolor
     fill
   
   % Curve
     43.536 23.457 m
     43.536 23.457 43.544 23.462 43.544 23.462 c
     /DeviceRGB setcolorspace
     0.934 0.18 0.386 setcolor
     gsave
      fill
      grestore
     /DeviceRGB setcolorspace
     0.934 0.189 0.259 setcolor
     0.1 setlinewidth
     1 setlinecap
     1 setlinejoin
     [] 0 setdash
     stroke
   
   % Curve
     47.111 20.731 m
     47.111 20.731 47.022 21.034 47.022 21.034 c
     47.022 21.034 46.778 21.872 46.778 21.872 c
     46.778 21.872 46.702 22.058 46.702 22.058 c
     46.702 22.058 46.453 22.508 46.453 22.508 c
     46.453 22.508 46.388 22.577 46.388 22.577 c
     46.388 22.577 46.114 22.93 46.114 22.93 c
     46.114 22.93 45.717 23.24 45.717 23.24 c
     45.717 23.24 45.299 23.398 45.299 23.398 c
     45.299 23.398 45.275 23.412 45.275 23.412 c
     45.275 23.412 44.743 23.557 44.743 23.557 c
     44.743 23.557 44.475 23.547 44.475 23.547 c
     44.475 23.547 44.168 23.568 44.168 23.568 c
     44.168 23.568 43.536 23.458 43.536 23.458 c
     43.536 23.458 42.853 23.307 42.853 23.307 c
     42.853 23.307 42.507 23.155 42.507 23.155 c
     42.507 23.155 42.129 22.972 42.129 22.972 c
     42.129 22.972 42.058 22.922 42.058 22.922 c
     42.058 22.922 41.54 22.654 41.54 22.654 c
     41.54 22.654 41.336 22.539 41.336 22.539 c
     41.336 22.539 40.943 22.243 40.943 22.243 c
     40.943 22.243 40.518 21.898 40.518 21.898 c
     40.518 21.898 40.439 21.829 40.439 21.829 c
     40.439 21.829 40.269 21.652 40.269 21.652 c
     40.269 21.652 40.191 21.59 40.191 21.59 c
     40.191 21.59 40.016 21.44 40.016 21.44 c
     40.016 21.44 39.87 21.325 39.87 21.325 c
     39.87 21.325 39.591 21.087 39.591 21.087 c
     39.591 21.087 39.351 20.863 39.351 20.863 c
     39.351 20.863 39.138 20.643 39.138 20.643 c
     39.138 20.643 38.944 20.423 38.944 20.423 c
     38.944 20.423 38.765 20.197 38.765 20.197 c
     38.765 20.197 38.7 20.106 38.7 20.106 c
     38.7 20.106 38.573 19.973 38.573 19.973 c
     38.573 19.973 38.375 19.747 38.375 19.747 c
     38.375 19.747 38.179 19.499 38.179 19.499 c
     38.179 19.499 37.976 19.219 37.976 19.219 c
     37.976 19.219 37.761 18.894 37.761 18.894 c
     37.761 18.894 37.673 18.748 37.673 18.748 c
     37.673 18.748 37.52 18.516 37.52 18.516 c
     37.52 18.516 37.354 18.251 37.354 18.251 c
     37.354 18.251 37.345 18.233 37.345 18.233 c
     37.345 18.233 37.238 18.079 37.238 18.079 c
     37.238 18.079 36.904 17.552 36.904 17.552 c
     36.904 17.552 36.661 17.14 36.661 17.14 c
     36.661 17.14 36.501 16.791 36.501 16.791 c
     36.501 16.791 36.236 16.16 36.236 16.16 c
     36.236 16.16 36.176 15.956 36.176 15.956 c
     36.176 15.956 35.977 15.473 35.977 15.473 c
     35.977 15.473 35.89 15.241 35.89 15.241 c
     35.89 15.241 35.698 14.371 35.698 14.371 c
     35.698 14.371 35.53 13.559 35.53 13.559 c
     35.53 13.559 35.499 12.795 35.499 12.795 c
     35.499 12.795 35.519 12.663 35.519 12.663 c
     35.519 12.663 35.569 12.093 35.569 12.093 c
     35.569 12.093 35.579 12.063 35.579 12.063 c
     35.579 12.063 35.635 11.475 35.635 11.475 c
     35.635 11.475 35.84 10.924 35.84 10.924 c
     35.84 10.924 36.106 10.55 36.106 10.55 c
     36.106 10.55 36.149 10.449 36.149 10.449 c
     36.149 10.449 36.469 10.064 36.469 10.064 c
     36.469 10.064 36.619 9.961 36.619 9.961 c
     36.619 9.961 36.947 9.775 36.947 9.775 c
     36.947 9.775 37.216 9.693 37.216 9.693 c
     37.216 9.693 37.476 9.589 37.476 9.589 c
     37.476 9.589 37.508 9.583 37.508 9.583 c
     37.508 9.583 37.884 9.518 37.884 9.518 c
     37.884 9.518 38.011 9.504 38.011 9.504 c
     38.011 9.504 38.82 9.532 38.82 9.532 c
     38.82 9.532 39.725 9.649 39.725 9.649 c
     39.725 9.649 40.616 9.856 40.616 9.856 c
     40.616 9.856 41.486 10.146 41.486 10.146 c
     41.486 10.146 42.322 10.521 42.322 10.521 c
     42.322 10.521 43.118 10.977 43.118 10.977 c
     43.118 10.977 43.862 11.504 43.862 11.504 c
     43.862 11.504 44.547 12.102 44.547 12.102 c
     44.547 12.102 45.168 12.76 45.168 12.76 c
     45.168 12.76 45.715 13.473 45.715 13.473 c
     45.715 13.473 46.183 14.232 46.183 14.232 c
     46.183 14.232 46.57 15.028 46.57 15.028 c
     46.57 15.028 46.653 15.234 46.653 15.234 c
     46.653 15.234 46.96 16.078 46.96 16.078 c
     46.96 16.078 47.174 16.945 47.174 16.945 c
     47.174 16.945 47.296 17.819 47.296 17.819 c
     47.296 17.819 47.325 18.697 47.325 18.697 c
     47.325 18.697 47.332 18.988 47.332 18.988 c
     47.332 18.988 47.268 19.869 47.268 19.869 c
     47.268 19.869 47.111 20.731 47.111 20.731 c
     closepath
     /DeviceRGB setcolorspace
     0.934 0.18 0.386 setcolor
     fill
   
   % Curve
     29.412 25.934 m
     29.412 25.934 29.4 25.939 29.4 25.939 c
     /DeviceRGB setcolorspace
     0.934 0.18 0.386 setcolor
     gsave
      fill
      grestore
     /DeviceRGB setcolorspace
     0.934 0.189 0.259 setcolor
     0.1 setlinewidth
     1 setlinecap
     1 setlinejoin
     [] 0 setdash
     stroke
   
   % Curve
     34.812 20.021 m
     34.812 20.021 34.812 20.023 34.812 20.023 c
     /DeviceRGB setcolorspace
     0.934 0.18 0.386 setcolor
     gsave
      fill
      grestore
     /DeviceRGB setcolorspace
     0.934 0.189 0.259 setcolor
     0.1 setlinewidth
     1 setlinecap
     1 setlinejoin
     [] 0 setdash
     stroke
   
   % Curve
     34.489 20.576 m
     34.489 20.576 34.365 21.045 34.365 21.045 c
     34.365 21.045 34.073 21.775 34.073 21.775 c
     34.073 21.775 33.926 22.059 33.926 22.059 c
     33.926 22.059 33.708 22.366 33.708 22.366 c
     33.708 22.366 33.411 22.918 33.411 22.918 c
     33.411 22.918 33.344 23.018 33.344 23.018 c
     33.344 23.018 32.627 23.847 32.627 23.847 c
     32.627 23.847 32.53 23.93 32.53 23.93 c
     32.53 23.93 31.939 24.382 31.939 24.382 c
     31.939 24.382 31.801 24.515 31.801 24.515 c
     31.801 24.515 31.472 24.757 31.472 24.757 c
     31.472 24.757 30.877 25.14 30.877 25.14 c
     30.877 25.14 30.394 25.36 30.394 25.36 c
     30.394 25.36 29.893 25.561 29.893 25.561 c
     29.893 25.561 29.202 25.725 29.202 25.725 c
     29.202 25.725 29.112 25.754 29.112 25.754 c
     29.112 25.754 28.858 25.846 28.858 25.846 c
     28.858 25.846 28.345 25.951 28.345 25.951 c
     28.345 25.951 27.744 26.053 27.744 26.053 c
     27.744 26.053 27.588 26.055 27.588 26.055 c
     27.588 26.055 27.042 26.053 27.042 26.053 c
     27.042 26.053 26.922 26.06 26.922 26.06 c
     26.922 26.06 26.595 26.067 26.595 26.067 c
     26.595 26.067 26.419 26.047 26.419 26.047 c
     26.419 26.047 25.988 25.99 25.988 25.99 c
     25.988 25.99 25.645 25.935 25.645 25.935 c
     25.645 25.935 25.47 25.903 25.47 25.903 c
     25.47 25.903 25.369 25.889 25.369 25.889 c
     25.369 25.889 25.348 25.887 25.348 25.887 c
     25.348 25.887 25.131 25.833 25.131 25.833 c
     25.131 25.833 24.927 25.776 24.927 25.776 c
     24.927 25.776 24.748 25.723 24.748 25.723 c
     24.748 25.723 24.585 25.672 24.585 25.672 c
     24.585 25.672 24.438 25.622 24.438 25.622 c
     24.438 25.622 24.302 25.573 24.302 25.573 c
     24.302 25.573 24.174 25.522 24.174 25.522 c
     24.174 25.522 24.121 25.5 24.121 25.5 c
     24.121 25.5 24.049 25.476 24.049 25.476 c
     24.049 25.476 23.927 25.43 23.927 25.43 c
     23.927 25.43 23.805 25.383 23.805 25.383 c
     23.805 25.383 23.682 25.332 23.682 25.332 c
     23.682 25.332 23.555 25.275 23.555 25.275 c
     23.555 25.275 23.423 25.212 23.423 25.212 c
     23.423 25.212 23.284 25.143 23.284 25.143 c
     23.284 25.143 23.135 25.065 23.135 25.065 c
     23.135 25.065 22.971 24.973 22.971 24.973 c
     22.971 24.973 22.873 24.916 22.873 24.916 c
     22.873 24.916 22.778 24.871 22.778 24.871 c
     22.778 24.871 22.641 24.8 22.641 24.8 c
     22.641 24.8 22.555 24.743 22.555 24.743 c
     22.555 24.743 22.32 24.576 22.32 24.576 c
     22.32 24.576 22.041 24.369 22.041 24.369 c
     22.041 24.369 21.699 24.101 21.699 24.101 c
     21.699 24.101 21.675 24.082 21.675 24.082 c
     21.675 24.082 21.649 24.064 21.649 24.064 c
     21.649 24.064 21.314 23.737 21.314 23.737 c
     21.314 23.737 20.884 23.291 20.884 23.291 c
     20.884 23.291 20.853 23.251 20.853 23.251 c
     20.853 23.251 20.497 22.721 20.497 22.721 c
     20.497 22.721 20.438 22.64 20.438 22.64 c
     20.438 22.64 20.278 22.407 20.278 22.407 c
     20.278 22.407 20.134 22.1 20.134 22.1 c
     20.134 22.1 19.961 21.812 19.961 21.812 c
     19.961 21.812 19.8 21.52 19.8 21.52 c
     19.8 21.52 19.52 20.748 19.52 20.748 c
     19.52 20.748 19.464 20.57 19.464 20.57 c
     19.464 20.57 19.36 19.886 19.36 19.886 c
     19.36 19.886 19.313 19.612 19.313 19.612 c
     19.313 19.612 19.303 19.53 19.303 19.53 c
     19.303 19.53 19.311 19.348 19.311 19.348 c
     19.311 19.348 19.261 18.545 19.261 18.545 c
     19.261 18.545 19.281 18.301 19.281 18.301 c
     19.281 18.301 19.406 17.509 19.406 17.509 c
     19.406 17.509 19.532 17.081 19.532 17.081 c
     19.532 17.081 19.638 16.813 19.638 16.813 c
     19.638 16.813 19.74 16.46 19.74 16.46 c
     19.74 16.46 20 15.878 20 15.878 c
     20 15.878 20.007 15.866 20.007 15.866 c
     20.007 15.866 20.22 15.473 20.22 15.473 c
     20.22 15.473 20.666 14.831 20.666 14.831 c
     20.666 14.831 20.961 14.482 20.961 14.482 c
     20.961 14.482 21.482 13.928 21.482 13.928 c
     21.482 13.928 21.838 13.62 21.838 13.62 c
     21.838 13.62 22.388 13.22 22.388 13.22 c
     22.388 13.22 22.778 12.996 22.778 12.996 c
     22.778 12.996 23.118 12.789 23.118 12.789 c
     23.118 12.789 23.342 12.675 23.342 12.675 c
     23.342 12.675 23.759 12.514 23.759 12.514 c
     23.759 12.514 24.338 12.277 24.338 12.277 c
     24.338 12.277 24.744 12.16 24.744 12.16 c
     24.744 12.16 25.327 12.028 25.327 12.028 c
     25.327 12.028 25.405 12.02 25.405 12.02 c
     25.405 12.02 26.319 11.896 26.319 11.896 c
     26.319 11.896 27.267 11.878 27.267 11.878 c
     27.267 11.878 27.28 11.878 27.28 11.878 c
     27.28 11.878 27.876 11.95 27.876 11.95 c
     27.876 11.95 28.206 11.986 28.206 11.986 c
     28.206 11.986 29.109 12.184 29.109 12.184 c
     29.109 12.184 29.969 12.479 29.969 12.479 c
     29.969 12.479 30.143 12.563 30.143 12.563 c
     30.143 12.563 30.797 12.86 30.797 12.86 c
     30.797 12.86 31.577 13.334 31.577 13.334 c
     31.577 13.334 32 13.663 32 13.663 c
     32 13.663 32.139 13.782 32.139 13.782 c
     32.139 13.782 32.301 13.907 32.301 13.907 c
     32.301 13.907 32.959 14.577 32.959 14.577 c
     32.959 14.577 33.543 15.346 33.543 15.346 c
     33.543 15.346 33.675 15.577 33.675 15.577 c
     33.675 15.577 33.716 15.662 33.716 15.662 c
     33.716 15.662 34.021 16.228 34.021 16.228 c
     34.021 16.228 34.13 16.523 34.13 16.523 c
     34.13 16.523 34.407 17.18 34.407 17.18 c
     34.407 17.18 34.41 17.19 34.41 17.19 c
     34.41 17.19 34.615 18.254 34.615 18.254 c
     34.615 18.254 34.623 18.351 34.623 18.351 c
     34.623 18.351 34.647 18.576 34.647 18.576 c
     34.647 18.576 34.65 19.398 34.65 19.398 c
     34.65 19.398 34.603 19.812 34.603 19.812 c
     34.603 19.812 34.489 20.576 34.489 20.576 c
     closepath
     /DeviceRGB setcolorspace
     0.934 0.18 0.386 setcolor
     fill
   
   % Curve
     34.4 7.709 m
     34.4 7.709 34.391 7.733 34.391 7.733 c
     34.391 7.733 34.13 8.023 34.13 8.023 c
     34.13 8.023 34.096 8.045 34.096 8.045 c
     34.096 8.045 33.798 8.374 33.798 8.374 c
     33.798 8.374 33.339 8.669 33.339 8.669 c
     33.339 8.669 33.141 8.745 33.141 8.745 c
     33.141 8.745 32.794 8.863 32.794 8.863 c
     32.794 8.863 32.739 8.899 32.739 8.899 c
     32.739 8.899 32.061 9.161 32.061 9.161 c
     32.061 9.161 31.927 9.188 31.927 9.188 c
     31.927 9.188 31.282 9.395 31.282 9.395 c
     31.282 9.395 30.869 9.476 30.869 9.476 c
     30.869 9.476 30.35 9.555 30.35 9.555 c
     30.35 9.555 30.254 9.562 30.254 9.562 c
     30.254 9.562 29.584 9.672 29.584 9.672 c
     29.584 9.672 29.302 9.705 29.302 9.705 c
     29.302 9.705 28.92 9.712 28.92 9.712 c
     28.92 9.712 28.633 9.755 28.633 9.755 c
     28.633 9.755 28.052 9.816 28.052 9.816 c
     28.052 9.816 27.841 9.823 27.841 9.823 c
     27.841 9.823 27.212 9.815 27.212 9.815 c
     27.212 9.815 26.662 9.78 26.662 9.78 c
     26.662 9.78 26.353 9.745 26.353 9.745 c
     26.353 9.745 26.155 9.751 26.155 9.751 c
     26.155 9.751 26.019 9.749 26.019 9.749 c
     26.019 9.749 25.681 9.731 25.681 9.731 c
     25.681 9.731 25.237 9.694 25.237 9.694 c
     25.237 9.694 24.806 9.634 24.806 9.634 c
     24.806 9.634 24.381 9.556 24.381 9.556 c
     24.381 9.556 24.069 9.487 24.069 9.487 c
     24.069 9.487 24.053 9.481 24.053 9.481 c
     24.053 9.481 23.948 9.472 23.948 9.472 c
     23.948 9.472 23.505 9.402 23.505 9.402 c
     23.505 9.402 23.039 9.301 23.039 9.301 c
     23.039 9.301 22.531 9.158 22.531 9.158 c
     22.531 9.158 22.303 9.08 22.303 9.08 c
     22.303 9.08 21.979 8.929 21.979 8.929 c
     21.979 8.929 21.959 8.924 21.959 8.924 c
     21.959 8.924 21.375 8.724 21.375 8.724 c
     21.375 8.724 21.332 8.704 21.332 8.704 c
     21.332 8.704 20.81 8.38 20.81 8.38 c
     20.81 8.38 20.749 8.354 20.749 8.354 c
     20.749 8.354 20.581 8.247 20.581 8.247 c
     20.581 8.247 20.263 8.01 20.263 8.01 c
     20.263 8.01 20.209 7.944 20.209 7.944 c
     20.209 7.944 19.9 7.683 19.9 7.683 c
     19.9 7.683 19.74 7.395 19.74 7.395 c
     19.74 7.395 19.702 7.313 19.702 7.313 c
     19.702 7.313 19.697 7.269 19.697 7.269 c
     19.697 7.269 19.599 6.996 19.599 6.996 c
     19.599 6.996 19.625 6.658 19.625 6.658 c
     19.625 6.658 19.774 6.32 19.774 6.32 c
     19.774 6.32 19.781 6.298 19.781 6.298 c
     19.781 6.298 19.882 6.158 19.882 6.158 c
     19.882 6.158 20.074 5.903 20.074 5.903 c
     20.074 5.903 20.636 5.281 20.636 5.281 c
     20.636 5.281 21.266 4.716 21.266 4.716 c
     21.266 4.716 21.518 4.528 21.518 4.528 c
     21.518 4.528 22.203 4.034 22.203 4.034 c
     22.203 4.034 22.942 3.614 22.942 3.614 c
     22.942 3.614 23.728 3.273 23.728 3.273 c
     23.728 3.273 24 3.177 24 3.177 c
     24 3.177 24.812 2.923 24.812 2.923 c
     24.812 2.923 25.653 2.755 25.653 2.755 c
     25.653 2.755 26.515 2.674 26.515 2.674 c
     26.515 2.674 26.753 2.677 26.753 2.677 c
     26.753 2.677 27.606 2.688 27.606 2.688 c
     27.606 2.688 28.461 2.789 28.461 2.789 c
     28.461 2.789 29.308 2.975 29.308 2.975 c
     29.308 2.975 30.137 3.252 30.137 3.252 c
     30.137 3.252 30.941 3.61 30.941 3.61 c
     30.941 3.61 31.709 4.048 31.709 4.048 c
     31.709 4.048 31.777 4.093 31.777 4.093 c
     31.777 4.093 32.477 4.591 32.477 4.591 c
     32.477 4.591 33.128 5.155 33.128 5.155 c
     33.128 5.155 33.722 5.794 33.722 5.794 c
     33.722 5.794 33.722 5.795 33.722 5.795 c
     33.722 5.795 34.101 6.267 34.101 6.267 c
     34.101 6.267 34.261 6.478 34.261 6.478 c
     34.261 6.478 34.383 6.674 34.383 6.674 c
     34.383 6.674 34.485 7.01 34.485 7.01 c
     34.485 7.01 34.468 7.12 34.468 7.12 c
     34.468 7.12 34.496 7.374 34.496 7.374 c
     34.496 7.374 34.4 7.709 34.4 7.709 c
     closepath
     /DeviceRGB setcolorspace
     0.934 0.18 0.386 setcolor
     fill
   
   % Curve
     22.555 64.363 m
     22.555 63.763 22.241 63.386 22.196 63.336 c
     22.19 63.339 22.185 63.342 22.179 63.344 c
     22.054 63.511 20.843 65.104 19.977 65.664 c
     20.322 64.552 19.605 64.402 19.605 64.402 c
     19.605 64.402 18.627 65.765 17.599 66.154 c
     18.126 65.729 17.758 65.129 17.611 64.931 c
     17.559 64.942 17.509 64.953 17.458 64.963 c
     17.138 65.272 16.101 66.209 14.959 66.516 c
     15.812 65.802 15.448 65.379 15.306 65.26 c
     15.272 65.261 15.235 65.264 15.202 65.265 c
     14.949 65.446 13.871 66.157 12.237 66.404 c
     13.198 65.859 13.138 65.386 13.057 65.195 c
     12.985 65.186 12.914 65.179 12.842 65.168 c
     12.357 65.36 10.892 65.897 10.02 65.831 c
     10.831 65.504 10.789 65.013 10.713 64.781 c
     10.63 64.763 10.546 64.743 10.464 64.725 c
     9.927 64.925 8.364 65.428 7.118 65.084 c
     7.329 64.967 7.652 64.645 7.997 64.25 c
     7.022 64.117 5.975 64.065 4.767 64.193 c
     5.407 63.47 5.764 62.631 6.039 61.705 c
     5.404 61.689 4.865 61.715 4.605 61.822 c
     4.904 61.047 5.983 60.198 6.52 59.814 c
     6.545 59.708 6.571 59.603 6.597 59.496 c
     6.304 59.386 5.749 59.271 5.05 59.568 c
     5.785 58.502 7.264 57.32 7.264 57.32 c
     7.264 57.32 7.046 56.916 5.91 57.166 c
     6.754 56.229 7.928 55.502 8.339 55.263 c
     8.367 55.219 8.396 55.176 8.425 55.133 c
     8.254 55.024 7.754 54.772 7.035 55.005 c
     8.034 54.062 9.616 53.366 10.07 53.177 c
     10.1 53.145 10.132 53.113 10.163 53.083 c
     10.063 52.966 9.71 52.651 8.852 52.752 c
     9.467 52.234 11.423 51.721 11.964 51.587 c
     12.006 51.558 12.048 51.53 12.091 51.502 c
     12.039 51.371 11.83 51.034 11.013 50.927 c
     12.082 50.459 13.541 50.392 14.208 50.388 c
     14.34 50.338 14.47 50.291 14.601 50.249 c
     14.606 50.067 14.478 49.744 13.655 49.453 c
     16.012 49.059 18.909 50.156 18.909 50.156 c
     18.909 50.156 18.915 50.164 18.915 50.164 c
     20.619 50.73 21.647 51.819 22.054 53.437 c
     19.122 56.854 12.607 60.765 9.688 62.107 c
     12.901 61.146 19.241 58.486 23.335 54.909 c
     25.525 55.898 25.986 57.722 25.471 59.465 c
     25.396 59.775 24.69 62.51 22.555 64.363 c
     /DeviceRGB setcolorspace
     0.372 0.733 0.275 setcolor
     fill
   
   % Curve
     49.218 59.568 m
     48.52 59.27 47.963 59.386 47.671 59.495 c
     47.697 59.602 47.722 59.708 47.749 59.813 c
     48.285 60.2 49.365 61.047 49.661 61.822 c
     49.403 61.715 48.864 61.689 48.231 61.705 c
     48.504 62.63 48.861 63.469 49.5 64.193 c
     48.295 64.065 47.246 64.116 46.271 64.25 c
     46.617 64.644 46.939 64.967 47.15 65.083 c
     45.903 65.428 44.341 64.925 43.804 64.726 c
     43.722 64.744 43.639 64.762 43.555 64.78 c
     43.479 65.012 43.437 65.504 44.25 65.831 c
     43.376 65.897 41.912 65.36 41.426 65.169 c
     41.355 65.179 41.283 65.187 41.211 65.196 c
     41.13 65.387 41.072 65.858 42.032 66.406 c
     40.397 66.157 39.319 65.446 39.068 65.265 c
     39.033 65.264 38.998 65.261 38.963 65.26 c
     38.82 65.379 38.455 65.801 39.309 66.515 c
     38.167 66.208 37.13 65.272 36.81 64.964 c
     36.76 64.953 36.708 64.942 36.656 64.93 c
     36.51 65.129 36.142 65.729 36.669 66.156 c
     35.641 65.765 34.663 64.403 34.663 64.403 c
     34.663 64.403 33.945 64.553 34.291 65.665 c
     33.425 65.105 32.216 63.512 32.088 63.344 c
     32.082 63.341 32.077 63.339 32.071 63.336 c
     32.027 63.386 31.713 63.762 31.713 64.362 c
     29.578 62.509 28.872 59.776 28.797 59.465 c
     28.283 57.723 28.742 55.898 30.932 54.909 c
     35.027 58.486 41.368 61.145 44.582 62.107 c
     41.662 60.765 35.146 56.853 32.214 53.437 c
     32.621 51.82 33.649 50.729 35.353 50.164 c
     35.353 50.164 35.359 50.156 35.359 50.156 c
     35.359 50.156 38.256 49.058 40.612 49.454 c
     39.79 49.745 39.663 50.068 39.668 50.249 c
     39.798 50.292 39.93 50.338 40.062 50.389 c
     40.727 50.392 42.184 50.459 43.254 50.927 c
     42.439 51.034 42.229 51.371 42.177 51.502 c
     42.219 51.529 42.261 51.559 42.304 51.588 c
     42.847 51.723 44.801 52.234 45.417 52.752 c
     44.56 52.65 44.204 52.966 44.104 53.084 c
     44.136 53.113 44.168 53.145 44.2 53.177 c
     44.654 53.366 46.233 54.062 47.233 55.006 c
     46.514 54.771 46.012 55.024 45.843 55.134 c
     45.872 55.177 45.901 55.22 45.929 55.263 c
     46.34 55.503 47.514 56.23 48.358 57.166 c
     47.222 56.917 47.004 57.32 47.004 57.32 c
     47.004 57.32 48.483 58.502 49.218 59.568 c
     /DeviceRGB setcolorspace
     0.372 0.733 0.275 setcolor
     fill
   
   % Curves
     52.727 43.071 m
     50.74 43.071 49.132 44.679 49.132 46.665 c
     49.132 48.652 50.74 50.26 52.727 50.26 c
     54.711 50.26 56.32 48.652 56.32 46.665 c
     56.32 44.679 54.711 43.071 52.727 43.071 c
     52.727 50.98 m
     50.343 50.98 48.414 49.048 48.414 46.665 c
     48.414 44.283 50.343 42.353 52.727 42.353 c
     55.11 42.353 57.039 44.283 57.039 46.665 c
     57.039 49.048 55.11 50.98 52.727 50.98 c
     /DeviceRGB setcolorspace
     0.136 0.121 0.124 setcolor
     fill
   
   % Curves
     51.925 46.941 m
     51.925 46.941 53.037 46.941 53.037 46.941 c
     53.489 46.941 53.734 47.135 53.734 47.601 c
     53.734 48.045 53.489 48.24 53.037 48.24 c
     53.037 48.24 51.925 48.24 51.925 48.24 c
     51.925 48.24 51.925 46.941 51.925 46.941 c
     closepath
     50.911 49.027 m
     50.911 49.027 53.398 49.027 53.398 49.027 c
     54.226 49.027 54.749 48.452 54.749 47.758 c
     54.749 47.212 54.53 46.805 54.019 46.598 c
     54.019 46.598 54.019 46.585 54.019 46.585 c
     54.516 46.457 54.658 45.973 54.691 45.507 c
     54.709 45.216 54.703 44.675 54.884 44.416 c
     54.884 44.416 53.87 44.416 53.87 44.416 c
     53.748 44.706 53.76 45.15 53.709 45.52 c
     53.638 46.005 53.45 46.217 52.941 46.217 c
     52.941 46.217 51.925 46.217 51.925 46.217 c
     51.925 46.217 51.925 44.416 51.925 44.416 c
     51.925 44.416 50.911 44.416 50.911 44.416 c
     50.911 44.416 50.911 49.027 50.911 49.027 c
     closepath
     /DeviceRGB setcolorspace
     0.136 0.121 0.124 setcolor
     fill
   
   % Curves
     79.451 41.265 m
     79.451 43.346 77.801 44.996 75.758 44.996 c
     75.758 44.996 71.346 44.996 71.346 44.996 c
     71.346 44.996 71.346 37.608 71.346 37.608 c
     71.346 37.608 75.758 37.608 75.758 37.608 c
     77.801 37.608 79.451 39.257 79.451 41.265 c
     84.471 26.849 m
     84.831 25.809 84.257 24.696 83.217 24.338 c
     83.074 24.303 82.786 24.231 82.428 24.231 c
     82.428 24.231 82.392 24.231 82.392 24.231 c
     82.033 24.231 81.496 24.303 80.994 24.625 c
     80.528 24.911 80.133 25.378 79.846 25.881 c
     79.344 26.921 79.093 28.212 79.093 30.184 c
     79.057 30.866 78.914 31.333 78.662 31.727 c
     78.448 32.122 78.016 32.479 77.587 32.766 c
     76.833 33.269 75.901 33.555 75.579 33.627 c
     75.579 33.627 71.346 33.627 71.346 33.627 c
     71.346 33.627 71.346 25.845 71.346 25.845 c
     71.346 24.77 70.45 23.874 69.338 23.874 c
     68.225 23.874 67.364 24.77 67.364 25.845 c
     67.364 25.845 67.364 47.005 67.364 47.005 c
     67.364 48.115 68.225 48.977 69.338 48.977 c
     75.758 48.977 l
     80.026 48.977 83.432 45.534 83.432 41.265 c
     83.432 38.899 82.355 36.819 80.634 35.386 c
     81.101 35.025 81.53 34.596 81.89 34.058 c
     82.607 33.018 83.074 31.691 83.074 30.184 c
     83.037 29.108 83.146 28.426 83.217 28.069 c
     83.79 27.889 84.257 27.458 84.471 26.849 c
     /DeviceRGB setcolorspace
     0.136 0.121 0.124 setcolor
     fill
   
   % Curves
     101.261 32.802 m
     101.261 34.309 100.722 35.598 99.86 36.497 c
     99.001 37.465 97.781 37.968 96.525 37.968 c
     95.235 37.968 94.016 37.465 93.191 36.497 c
     92.329 35.598 91.828 34.309 91.828 32.802 c
     91.828 31.333 92.329 30.041 93.191 29.107 c
     94.016 28.213 95.235 27.71 96.525 27.71 c
     97.781 27.71 99.001 28.213 99.86 29.107 c
     100.722 30.041 101.261 31.333 101.261 32.802 c
     105.061 32.802 m
     105.061 32.802 105.061 25.773 105.061 25.773 c
     105.061 24.732 104.201 23.872 103.161 23.872 c
     102.229 23.872 101.511 24.554 101.297 25.416 c
     99.933 24.446 98.319 23.872 96.525 23.872 c
     94.088 23.872 91.971 24.877 90.429 26.491 c
     88.886 28.139 87.99 30.363 87.99 32.802 c
     87.99 35.276 88.886 37.501 90.429 39.115 c
     91.971 40.764 94.088 41.803 96.525 41.803 c
     98.319 41.803 99.933 41.194 101.297 40.226 c
     101.511 41.122 102.229 41.803 103.161 41.803 c
     104.201 41.803 105.061 40.944 105.061 39.868 c
     105.061 39.868 105.061 32.802 105.061 32.802 c
     closepath
     /DeviceRGB setcolorspace
     0.136 0.121 0.124 setcolor
     fill
   
   % Curve
     111.232 29 m
     111.878 29.86 113.134 29.969 113.924 29.287 c
     114.856 28.498 116.469 27.673 117.868 27.709 c
     118.838 27.709 119.732 28.032 120.307 28.391 c
     120.809 28.822 120.952 29.179 120.952 29.468 c
     120.952 29.647 120.916 29.719 120.846 29.825 c
     120.809 29.933 120.666 30.076 120.377 30.255 c
     119.877 30.615 118.8 31.01 117.509 31.26 c
     117.509 31.26 117.474 31.26 117.474 31.26 c
     116.363 31.475 115.287 31.763 114.355 32.193 c
     113.385 32.658 112.525 33.304 111.878 34.271 c
     111.485 34.917 111.271 35.707 111.271 36.532 c
     111.271 38.181 112.202 39.58 113.385 40.477 c
     114.64 41.337 116.145 41.804 117.798 41.804 c
     120.272 41.804 122.028 40.62 123.175 39.831 c
     124.037 39.258 124.287 38.075 123.749 37.178 c
     123.175 36.317 121.991 36.066 121.096 36.675 c
     119.947 37.428 118.944 38.002 117.798 38.002 c
     116.901 38.002 116.11 37.716 115.645 37.357 c
     115.178 37.034 115.072 36.711 115.072 36.532 c
     115.072 36.388 115.072 36.353 115.141 36.246 c
     115.178 36.173 115.287 36.03 115.538 35.885 c
     116.004 35.564 116.936 35.242 118.155 35.025 c
     118.155 35.025 118.191 34.991 118.191 34.991 c
     118.191 34.991 118.226 34.991 118.226 34.991 c
     119.412 34.774 120.522 34.452 121.561 33.95 c
     122.53 33.52 123.498 32.838 124.11 31.835 c
     124.539 31.115 124.789 30.292 124.789 29.468 c
     124.789 27.709 123.822 26.239 122.53 25.307 c
     121.24 24.411 119.625 23.873 117.868 23.873 c
     115.072 23.909 112.919 25.198 111.485 26.347 c
     110.696 26.991 110.589 28.212 111.232 29 c
     /DeviceRGB setcolorspace
     0.136 0.121 0.124 setcolor
     fill
   
   % Curves
     133.686 32.802 m
     133.686 31.405 134.153 30.041 135.085 29.216 c
     135.982 28.213 137.164 27.71 138.494 27.71 c
     139.709 27.71 140.931 28.213 141.863 29.216 c
     142.687 30.041 143.261 31.405 143.261 32.802 c
     143.261 34.201 142.687 35.491 141.863 36.425 c
     140.931 37.393 139.709 37.894 138.494 37.894 c
     137.164 37.894 135.982 37.393 135.085 36.425 c
     134.153 35.491 133.686 34.201 133.686 32.802 c
     129.74 19.066 m
     129.74 39.903 l
     129.74 40.944 130.603 41.803 131.642 41.803 c
     132.647 41.803 133.471 41.122 133.614 40.333 c
     134.942 41.194 136.663 41.803 138.494 41.803 c
     143.261 41.803 147.169 37.715 147.169 32.802 c
     147.169 27.889 143.261 23.909 138.494 23.909 c
     136.698 23.909 134.977 24.446 133.686 25.378 c
     133.686 25.378 133.686 19.066 133.686 19.066 c
     133.686 18.062 132.789 17.13 131.642 17.13 c
     130.603 17.13 129.74 18.062 129.74 19.066 c
     /DeviceRGB setcolorspace
     0.136 0.121 0.124 setcolor
     fill
   
   % Curves
     157.323 32.802 m
     157.323 31.44 157.862 30.149 158.757 29.252 c
     159.653 28.32 160.801 27.781 162.129 27.781 c
     163.42 27.781 164.602 28.32 165.499 29.252 c
     166.396 30.149 166.937 31.44 166.937 32.802 c
     166.937 34.237 166.396 35.527 165.499 36.425 c
     164.602 37.357 163.42 37.894 162.129 37.894 c
     160.801 37.894 159.653 37.357 158.757 36.425 c
     157.862 35.527 157.323 34.237 157.323 32.802 c
     153.413 32.802 m
     153.413 47.041 l
     153.413 48.08 154.273 48.977 155.351 48.977 c
     156.461 48.977 157.323 48.08 157.323 47.041 c
     157.323 47.041 157.323 40.299 157.323 40.299 c
     158.648 41.231 160.369 41.803 162.129 41.803 c
     166.97 41.803 170.845 37.715 170.845 32.802 c
     170.845 27.96 166.97 23.872 162.129 23.872 c
     160.335 23.872 158.614 24.482 157.25 25.416 c
     157.072 24.554 156.318 23.872 155.351 23.872 c
     154.273 23.872 153.413 24.768 153.413 25.809 c
     153.413 25.809 153.413 32.802 153.413 32.802 c
     closepath
     /DeviceRGB setcolorspace
     0.136 0.121 0.124 setcolor
     fill
   
   % Curves
     179.743 34.595 m
     179.743 34.595 189.891 34.595 189.891 34.595 c
     189.531 36.03 187.703 38.147 184.585 38.396 c
     181.537 38.253 180.029 36.065 179.743 34.595 c
     175.833 32.837 m
     175.867 37.715 179.67 41.803 184.585 41.803 c
     189.246 41.803 192.941 38.325 193.226 33.484 c
     193.226 33.484 193.226 33.304 193.226 33.304 c
     193.226 33.231 193.226 33.054 193.191 32.983 c
     193.082 32.122 192.331 31.547 191.327 31.547 c
     191.327 31.547 179.923 31.547 179.923 31.547 c
     180.101 30.72 180.497 29.789 181.14 29.18 c
     181.896 28.32 183.328 27.673 184.585 27.566 c
     185.874 27.457 187.418 27.781 188.314 28.463 c
     189.067 29.252 190.536 29.145 191.003 28.57 c
     191.468 28.069 191.827 26.991 191.003 26.239 c
     189.246 24.625 187.129 23.874 184.585 23.874 c
     179.67 23.909 175.867 27.96 175.833 32.837 c
     /DeviceRGB setcolorspace
     0.136 0.121 0.124 setcolor
     fill
   
   % Curve
     209.225 39.903 m
     209.225 38.9 208.4 38.001 207.325 38.001 c
     206.499 38.001 205.782 37.787 205.174 37.321 c
     204.492 36.891 203.953 36.28 203.521 35.598 c
     202.662 34.452 202.23 33.09 202.054 32.587 c
     202.054 32.587 202.054 25.773 202.054 25.773 c
     202.054 24.732 201.157 23.872 200.08 23.872 c
     199.04 23.872 198.18 24.732 198.18 25.773 c
     198.18 25.773 198.18 39.903 198.18 39.903 c
     198.18 40.944 199.04 41.768 200.08 41.768 c
     201.157 41.768 202.054 40.944 202.054 39.903 c
     202.054 39.903 202.054 39.653 202.054 39.653 c
     202.267 39.903 202.555 40.189 202.806 40.369 c
     203.988 41.158 205.531 41.803 207.325 41.768 c
     208.4 41.768 209.225 40.944 209.225 39.903 c
     /DeviceRGB setcolorspace
     0.136 0.121 0.124 setcolor
     fill
   
   % Curve
     224.972 39.903 m
     224.972 38.9 224.147 38.001 223.072 38.001 c
     222.245 38.001 221.529 37.787 220.92 37.321 c
     220.238 36.891 219.699 36.28 219.267 35.598 c
     218.408 34.452 217.978 33.09 217.799 32.587 c
     217.799 32.587 217.799 25.773 217.799 25.773 c
     217.799 24.732 216.902 23.872 215.825 23.872 c
     214.785 23.872 213.925 24.732 213.925 25.773 c
     213.925 25.773 213.925 39.903 213.925 39.903 c
     213.925 40.944 214.785 41.768 215.825 41.768 c
     216.902 41.768 217.799 40.944 217.799 39.903 c
     217.799 39.903 217.799 39.653 217.799 39.653 c
     218.013 39.903 218.302 40.189 218.551 40.369 c
     219.735 41.158 221.279 41.803 223.072 41.768 c
     224.147 41.768 224.972 40.944 224.972 39.903 c
     /DeviceRGB setcolorspace
     0.136 0.121 0.124 setcolor
     fill
   
   % Curve
     243.193 39.903 m
     243.193 39.903 243.193 31.44 243.193 31.44 c
     243.193 31.44 243.193 26.348 243.193 26.348 c
     243.193 21.54 239.393 17.776 234.621 17.776 c
     233.331 17.776 232.002 18.134 230.929 18.672 c
     229.924 19.103 229.564 20.214 229.996 21.218 c
     230.461 22.079 231.678 22.474 232.541 22.008 c
     233.223 21.685 233.903 21.506 234.621 21.506 c
     236.735 21.54 238.53 22.904 239.104 24.768 c
     238.099 24.196 236.881 23.909 235.696 23.909 c
     231.571 23.909 228.201 27.314 228.201 31.44 c
     228.201 31.44 228.201 39.903 228.201 39.903 c
     228.201 40.979 229.099 41.803 230.066 41.803 c
     231.178 41.803 231.967 40.979 231.967 39.903 c
     231.967 39.903 231.967 31.44 231.967 31.44 c
     231.967 29.359 233.653 27.781 235.696 27.781 c
     237.741 27.781 239.393 29.359 239.393 31.44 c
     239.393 31.44 239.393 39.903 239.393 39.903 c
     239.393 40.979 240.179 41.803 241.257 41.803 c
     242.296 41.803 243.193 40.979 243.193 39.903 c
     /DeviceRGB setcolorspace
     0.136 0.121 0.124 setcolor
     fill
   
   % Curves
     263.021 37.608 m
     263.021 37.608 267.431 37.608 267.431 37.608 c
     269.513 37.608 271.125 39.258 271.16 41.265 c
     271.125 43.347 269.513 44.996 267.431 44.996 c
     267.431 44.996 263.021 44.996 263.021 44.996 c
     263.021 44.996 263.021 37.608 263.021 37.608 c
     closepath
     267.431 33.627 m
     267.431 33.627 263.021 33.627 263.021 33.627 c
     263.021 33.627 263.021 25.844 263.021 25.844 c
     263.021 24.769 262.123 23.873 261.011 23.873 c
     259.936 23.873 259.04 24.769 259.04 25.844 c
     259.04 25.844 259.04 47.004 259.04 47.004 c
     259.04 48.115 259.936 48.978 261.011 48.978 c
     267.431 48.978 l
     271.7 48.978 275.142 45.533 275.142 41.265 c
     275.142 37.069 271.7 33.627 267.431 33.627 c
     /DeviceRGB setcolorspace
     0.136 0.121 0.124 setcolor
     fill
   
   % Curves
     283.465 39.797 m
     283.465 39.797 283.465 25.809 283.465 25.809 c
     283.465 24.732 282.64 23.874 281.532 23.874 c
     280.452 23.874 279.594 24.732 279.594 25.809 c
     279.594 25.809 279.594 39.797 279.594 39.797 c
     279.594 40.944 280.452 41.768 281.532 41.768 c
     282.64 41.768 283.465 40.944 283.465 39.797 c
     283.465 46.286 m
     283.465 45.211 282.64 44.314 281.532 44.314 c
     280.452 44.314 279.594 45.211 279.594 46.286 c
     279.594 46.286 279.594 47.041 279.594 47.041 c
     279.594 48.116 280.452 48.977 281.532 48.977 c
     282.64 48.977 283.465 48.116 283.465 47.041 c
     283.465 47.041 283.465 46.286 283.465 46.286 c
     closepath
     /DeviceRGB setcolorspace
     0.136 0.121 0.124 setcolor
     fill
   grestore
 grestore
showpage
end